//Maya ASCII 2023 scene
//Name: halfcirc_tube_8r.ma
//Last modified: Sat, Feb 04, 2023 12:51:47 AM
//Codeset: UTF-8
requires maya "2023";
requires -nodeType "aiOptions" -nodeType "aiAOVDriver" -nodeType "aiAOVFilter" "mtoa" "5.2.1.1";
currentUnit -l centimeter -a degree -t film;
fileInfo "application" "maya";
fileInfo "product" "Maya 2023";
fileInfo "version" "2023";
fileInfo "cutIdentifier" "202211021031-847a9f9623";
fileInfo "osv" "Mac OS X 10.16";
fileInfo "UUID" "95898E75-AF4F-CFED-137A-EFAF1D1144A6";
createNode transform -s -n "persp";
	rename -uid "0FBA4657-DF41-9E76-A031-B4A64A759243";
	setAttr ".v" no;
	setAttr ".t" -type "double3" -50.416696507215811 39.317942394108663 49.00891001091226 ;
	setAttr ".r" -type "double3" -37.538352729583536 -42.200000000029092 2.1466893546607096e-15 ;
createNode camera -s -n "perspShape" -p "persp";
	rename -uid "4D7D440B-5744-99F0-7BCF-3CAD62507474";
	setAttr -k off ".v" no;
	setAttr ".fl" 34.999999999999986;
	setAttr ".coi" 92.511583487263948;
	setAttr ".imn" -type "string" "persp";
	setAttr ".den" -type "string" "persp_depth";
	setAttr ".man" -type "string" "persp_mask";
	setAttr ".hc" -type "string" "viewSet -p %camera";
createNode transform -s -n "top";
	rename -uid "FB24ECC4-304F-A110-69DA-C2BBC7AB7DEA";
	setAttr ".v" no;
	setAttr ".t" -type "double3" 11.416497152889855 1000.1 18.234434847579266 ;
	setAttr ".r" -type "double3" -89.999999999999986 0 0 ;
createNode camera -s -n "topShape" -p "top";
	rename -uid "73E9C074-A247-838F-1FBE-5ABD5F4B5A35";
	setAttr -k off ".v" no;
	setAttr ".rnd" no;
	setAttr ".coi" 1000.1;
	setAttr ".ow" 124.51921148779989;
	setAttr ".imn" -type "string" "top";
	setAttr ".den" -type "string" "top_depth";
	setAttr ".man" -type "string" "top_mask";
	setAttr ".hc" -type "string" "viewSet -t %camera";
	setAttr ".o" yes;
	setAttr ".ai_translator" -type "string" "orthographic";
createNode transform -s -n "front";
	rename -uid "C2815586-0D4E-D91F-8D51-AA8C3095E5A7";
	setAttr ".v" no;
	setAttr ".t" -type "double3" 1.1565560117318205 -20.126077379373779 1000.1 ;
createNode camera -s -n "frontShape" -p "front";
	rename -uid "05646303-214C-005C-2598-A4AF6B96CA0B";
	setAttr -k off ".v" no;
	setAttr ".rnd" no;
	setAttr ".coi" 1000.1;
	setAttr ".ow" 54.354486312527172;
	setAttr ".imn" -type "string" "front";
	setAttr ".den" -type "string" "front_depth";
	setAttr ".man" -type "string" "front_mask";
	setAttr ".hc" -type "string" "viewSet -f %camera";
	setAttr ".o" yes;
	setAttr ".ai_translator" -type "string" "orthographic";
createNode transform -s -n "side";
	rename -uid "87CDD89D-5843-6768-FBE3-7C818065E85C";
	setAttr ".v" no;
	setAttr ".t" -type "double3" 1000.1 0 0 ;
	setAttr ".r" -type "double3" 0 89.999999999999986 0 ;
createNode camera -s -n "sideShape" -p "side";
	rename -uid "AE816393-4C4F-4A6B-65C4-FC9752F5C931";
	setAttr -k off ".v" no;
	setAttr ".rnd" no;
	setAttr ".coi" 1000.1;
	setAttr ".ow" 30;
	setAttr ".imn" -type "string" "side";
	setAttr ".den" -type "string" "side_depth";
	setAttr ".man" -type "string" "side_mask";
	setAttr ".hc" -type "string" "viewSet -s %camera";
	setAttr ".o" yes;
	setAttr ".ai_translator" -type "string" "orthographic";
createNode transform -n "pTorus1";
	rename -uid "426844DF-F44A-FC60-0CB7-238976E3D3D4";
	setAttr ".r" -type "double3" 90 0 0 ;
createNode mesh -n "pTorusShape1" -p "pTorus1";
	rename -uid "853FFDA4-EE4F-B800-253A-DEB7C1194055";
	setAttr -k off ".v";
	setAttr ".vir" yes;
	setAttr ".vif" yes;
	setAttr ".pv" -type "double2" 0.55624976754188538 0.49999990314245224 ;
	setAttr ".uvst[0].uvsn" -type "string" "map1";
	setAttr ".cuvs" -type "string" "map1";
	setAttr ".dcc" -type "string" "Ambient+Diffuse";
	setAttr ".covm[0]"  0 1 1;
	setAttr ".cdvm[0]"  0 1 1;
createNode lightLinker -s -n "lightLinker1";
	rename -uid "7F2604D0-ED4A-AA20-794E-EDABD9B21FC3";
	setAttr -s 2 ".lnk";
	setAttr -s 2 ".slnk";
createNode shapeEditorManager -n "shapeEditorManager";
	rename -uid "CB8668FF-7F41-6F0D-31EC-3B90B98FD132";
createNode poseInterpolatorManager -n "poseInterpolatorManager";
	rename -uid "A758CC29-2349-5BAB-B01F-C98639540E81";
createNode displayLayerManager -n "layerManager";
	rename -uid "A6FC8094-594E-1D1F-CE16-7B8760D66CD4";
createNode displayLayer -n "defaultLayer";
	rename -uid "D0FE9836-5543-2C31-73FC-F395628232A5";
	setAttr ".ufem" -type "stringArray" 0  ;
createNode renderLayerManager -n "renderLayerManager";
	rename -uid "32F15A77-A04E-AF5C-E5FF-5A83567171C8";
createNode renderLayer -n "defaultRenderLayer";
	rename -uid "D39B144D-E94B-68C1-2174-20B22EDFC949";
	setAttr ".g" yes;
createNode aiOptions -s -n "defaultArnoldRenderOptions";
	rename -uid "C2E0AEDA-E249-4CB2-5AC8-C0961B9016A5";
	setAttr ".version" -type "string" "5.2.1.1";
createNode aiAOVFilter -s -n "defaultArnoldFilter";
	rename -uid "E75AB8A9-4749-7238-1D09-D884CCD49069";
	setAttr ".ai_translator" -type "string" "gaussian";
createNode aiAOVDriver -s -n "defaultArnoldDriver";
	rename -uid "7CD9CFDE-7441-EABF-7EE3-1699D3C4248C";
	setAttr ".ai_translator" -type "string" "exr";
createNode aiAOVDriver -s -n "defaultArnoldDisplayDriver";
	rename -uid "E19C08C1-2E4A-84EB-2687-BC93C0437DA4";
	setAttr ".output_mode" 0;
	setAttr ".ai_translator" -type "string" "maya";
createNode polyTorus -n "polyTorus1";
	rename -uid "CD66D8CB-9142-31CE-FE17-5BAC1B61BB07";
	setAttr ".r" 25;
	setAttr ".sr" 8;
	setAttr ".sa" 80;
createNode deleteComponent -n "deleteComponent1";
	rename -uid "B4BF1655-BF41-06BF-84DA-998419187B09";
	setAttr ".dc" -type "componentList" 21 "f[0:38]" "f[79:118]" "f[159:198]" "f[239:278]" "f[319:358]" "f[399:438]" "f[479:518]" "f[559:598]" "f[639:678]" "f[719:758]" "f[799:838]" "f[879:918]" "f[959:998]" "f[1039:1078]" "f[1119:1158]" "f[1199:1238]" "f[1279:1318]" "f[1359:1398]" "f[1439:1478]" "f[1519:1558]" "f[1599]";
createNode polySplitEdge -n "polySplitEdge1";
	rename -uid "E3D3636B-EF4F-4D1C-DBFE-18A95693D6E9";
	setAttr ".uopa" yes;
	setAttr ".ics" -type "componentList" 40 "e[820]" "e[840]" "e[861]" "e[881]" "e[902]" "e[922]" "e[943]" "e[963]" "e[984]" "e[1004]" "e[1025]" "e[1045]" "e[1066]" "e[1086]" "e[1107]" "e[1127]" "e[1148]" "e[1168]" "e[1189]" "e[1209]" "e[1230]" "e[1250]" "e[1271]" "e[1291]" "e[1312]" "e[1332]" "e[1353]" "e[1373]" "e[1394]" "e[1414]" "e[1435]" "e[1455]" "e[1476]" "e[1496]" "e[1517]" "e[1537]" "e[1558]" "e[1578]" "e[1599]" "e[1619]";
createNode script -n "uiConfigurationScriptNode";
	rename -uid "07927DE2-9C49-99BD-5A0E-76B7A3309F94";
	setAttr ".b" -type "string" (
		"// Maya Mel UI Configuration File.\n//\n//  This script is machine generated.  Edit at your own risk.\n//\n//\n\nglobal string $gMainPane;\nif (`paneLayout -exists $gMainPane`) {\n\n\tglobal int $gUseScenePanelConfig;\n\tint    $useSceneConfig = $gUseScenePanelConfig;\n\tint    $nodeEditorPanelVisible = stringArrayContains(\"nodeEditorPanel1\", `getPanel -vis`);\n\tint    $nodeEditorWorkspaceControlOpen = (`workspaceControl -exists nodeEditorPanel1Window` && `workspaceControl -q -visible nodeEditorPanel1Window`);\n\tint    $menusOkayInPanels = `optionVar -q allowMenusInPanels`;\n\tint    $nVisPanes = `paneLayout -q -nvp $gMainPane`;\n\tint    $nPanes = 0;\n\tstring $editorName;\n\tstring $panelName;\n\tstring $itemFilterName;\n\tstring $panelConfig;\n\n\t//\n\t//  get current state of the UI\n\t//\n\tsceneUIReplacement -update $gMainPane;\n\n\t$panelName = `sceneUIReplacement -getNextPanel \"modelPanel\" (localizedPanelLabel(\"Top View\")) `;\n\tif (\"\" != $panelName) {\n\t\t$label = `panel -q -label $panelName`;\n\t\tmodelPanel -edit -l (localizedPanelLabel(\"Top View\")) -mbv $menusOkayInPanels  $panelName;\n"
		+ "\t\t$editorName = $panelName;\n        modelEditor -e \n            -camera \"|top\" \n            -useInteractiveMode 0\n            -displayLights \"default\" \n            -displayAppearance \"smoothShaded\" \n            -activeOnly 0\n            -ignorePanZoom 0\n            -wireframeOnShaded 0\n            -headsUpDisplay 1\n            -holdOuts 1\n            -selectionHiliteDisplay 1\n            -useDefaultMaterial 0\n            -bufferMode \"double\" \n            -twoSidedLighting 0\n            -backfaceCulling 0\n            -xray 0\n            -jointXray 0\n            -activeComponentsXray 0\n            -displayTextures 0\n            -smoothWireframe 0\n            -lineWidth 1\n            -textureAnisotropic 0\n            -textureHilight 1\n            -textureSampling 2\n            -textureDisplay \"modulate\" \n            -textureMaxSize 16384\n            -fogging 0\n            -fogSource \"fragment\" \n            -fogMode \"linear\" \n            -fogStart 0\n            -fogEnd 100\n            -fogDensity 0.1\n            -fogColor 0.5 0.5 0.5 1 \n"
		+ "            -depthOfFieldPreview 1\n            -maxConstantTransparency 1\n            -rendererName \"vp2Renderer\" \n            -objectFilterShowInHUD 1\n            -isFiltered 0\n            -colorResolution 256 256 \n            -bumpResolution 512 512 \n            -textureCompression 0\n            -transparencyAlgorithm \"frontAndBackCull\" \n            -transpInShadows 0\n            -cullingOverride \"none\" \n            -lowQualityLighting 0\n            -maximumNumHardwareLights 1\n            -occlusionCulling 0\n            -shadingModel 0\n            -useBaseRenderer 0\n            -useReducedRenderer 0\n            -smallObjectCulling 0\n            -smallObjectThreshold -1 \n            -interactiveDisableShadows 0\n            -interactiveBackFaceCull 0\n            -sortTransparent 1\n            -controllers 1\n            -nurbsCurves 1\n            -nurbsSurfaces 1\n            -polymeshes 1\n            -subdivSurfaces 1\n            -planes 1\n            -lights 1\n            -cameras 1\n            -controlVertices 1\n"
		+ "            -hulls 1\n            -grid 1\n            -imagePlane 1\n            -joints 1\n            -ikHandles 1\n            -deformers 1\n            -dynamics 1\n            -particleInstancers 1\n            -fluids 1\n            -hairSystems 1\n            -follicles 1\n            -nCloths 1\n            -nParticles 1\n            -nRigids 1\n            -dynamicConstraints 1\n            -locators 1\n            -manipulators 1\n            -pluginShapes 1\n            -dimensions 1\n            -handles 1\n            -pivots 1\n            -textures 1\n            -strokes 1\n            -motionTrails 1\n            -clipGhosts 1\n            -bluePencil 1\n            -greasePencils 0\n            -shadows 0\n            -captureSequenceNumber -1\n            -width 822\n            -height 466\n            -sceneRenderFilter 0\n            $editorName;\n        modelEditor -e -viewSelected 0 $editorName;\n        modelEditor -e \n            -pluginObjects \"gpuCacheDisplayFilter\" 1 \n            $editorName;\n\t\tif (!$useSceneConfig) {\n"
		+ "\t\t\tpanel -e -l $label $panelName;\n\t\t}\n\t}\n\n\n\t$panelName = `sceneUIReplacement -getNextPanel \"modelPanel\" (localizedPanelLabel(\"Side View\")) `;\n\tif (\"\" != $panelName) {\n\t\t$label = `panel -q -label $panelName`;\n\t\tmodelPanel -edit -l (localizedPanelLabel(\"Side View\")) -mbv $menusOkayInPanels  $panelName;\n\t\t$editorName = $panelName;\n        modelEditor -e \n            -camera \"|side\" \n            -useInteractiveMode 0\n            -displayLights \"default\" \n            -displayAppearance \"smoothShaded\" \n            -activeOnly 0\n            -ignorePanZoom 0\n            -wireframeOnShaded 0\n            -headsUpDisplay 1\n            -holdOuts 1\n            -selectionHiliteDisplay 1\n            -useDefaultMaterial 0\n            -bufferMode \"double\" \n            -twoSidedLighting 0\n            -backfaceCulling 0\n            -xray 0\n            -jointXray 0\n            -activeComponentsXray 0\n            -displayTextures 0\n            -smoothWireframe 0\n            -lineWidth 1\n            -textureAnisotropic 0\n            -textureHilight 1\n"
		+ "            -textureSampling 2\n            -textureDisplay \"modulate\" \n            -textureMaxSize 16384\n            -fogging 0\n            -fogSource \"fragment\" \n            -fogMode \"linear\" \n            -fogStart 0\n            -fogEnd 100\n            -fogDensity 0.1\n            -fogColor 0.5 0.5 0.5 1 \n            -depthOfFieldPreview 1\n            -maxConstantTransparency 1\n            -rendererName \"vp2Renderer\" \n            -objectFilterShowInHUD 1\n            -isFiltered 0\n            -colorResolution 256 256 \n            -bumpResolution 512 512 \n            -textureCompression 0\n            -transparencyAlgorithm \"frontAndBackCull\" \n            -transpInShadows 0\n            -cullingOverride \"none\" \n            -lowQualityLighting 0\n            -maximumNumHardwareLights 1\n            -occlusionCulling 0\n            -shadingModel 0\n            -useBaseRenderer 0\n            -useReducedRenderer 0\n            -smallObjectCulling 0\n            -smallObjectThreshold -1 \n            -interactiveDisableShadows 0\n"
		+ "            -interactiveBackFaceCull 0\n            -sortTransparent 1\n            -controllers 1\n            -nurbsCurves 1\n            -nurbsSurfaces 1\n            -polymeshes 1\n            -subdivSurfaces 1\n            -planes 1\n            -lights 1\n            -cameras 1\n            -controlVertices 1\n            -hulls 1\n            -grid 1\n            -imagePlane 1\n            -joints 1\n            -ikHandles 1\n            -deformers 1\n            -dynamics 1\n            -particleInstancers 1\n            -fluids 1\n            -hairSystems 1\n            -follicles 1\n            -nCloths 1\n            -nParticles 1\n            -nRigids 1\n            -dynamicConstraints 1\n            -locators 1\n            -manipulators 1\n            -pluginShapes 1\n            -dimensions 1\n            -handles 1\n            -pivots 1\n            -textures 1\n            -strokes 1\n            -motionTrails 1\n            -clipGhosts 1\n            -bluePencil 1\n            -greasePencils 0\n            -shadows 0\n            -captureSequenceNumber -1\n"
		+ "            -width 820\n            -height 464\n            -sceneRenderFilter 0\n            $editorName;\n        modelEditor -e -viewSelected 0 $editorName;\n        modelEditor -e \n            -pluginObjects \"gpuCacheDisplayFilter\" 1 \n            $editorName;\n\t\tif (!$useSceneConfig) {\n\t\t\tpanel -e -l $label $panelName;\n\t\t}\n\t}\n\n\n\t$panelName = `sceneUIReplacement -getNextPanel \"modelPanel\" (localizedPanelLabel(\"Front View\")) `;\n\tif (\"\" != $panelName) {\n\t\t$label = `panel -q -label $panelName`;\n\t\tmodelPanel -edit -l (localizedPanelLabel(\"Front View\")) -mbv $menusOkayInPanels  $panelName;\n\t\t$editorName = $panelName;\n        modelEditor -e \n            -camera \"|front\" \n            -useInteractiveMode 0\n            -displayLights \"default\" \n            -displayAppearance \"smoothShaded\" \n            -activeOnly 0\n            -ignorePanZoom 0\n            -wireframeOnShaded 0\n            -headsUpDisplay 1\n            -holdOuts 1\n            -selectionHiliteDisplay 1\n            -useDefaultMaterial 0\n            -bufferMode \"double\" \n"
		+ "            -twoSidedLighting 0\n            -backfaceCulling 0\n            -xray 0\n            -jointXray 0\n            -activeComponentsXray 0\n            -displayTextures 0\n            -smoothWireframe 0\n            -lineWidth 1\n            -textureAnisotropic 0\n            -textureHilight 1\n            -textureSampling 2\n            -textureDisplay \"modulate\" \n            -textureMaxSize 16384\n            -fogging 0\n            -fogSource \"fragment\" \n            -fogMode \"linear\" \n            -fogStart 0\n            -fogEnd 100\n            -fogDensity 0.1\n            -fogColor 0.5 0.5 0.5 1 \n            -depthOfFieldPreview 1\n            -maxConstantTransparency 1\n            -rendererName \"vp2Renderer\" \n            -objectFilterShowInHUD 1\n            -isFiltered 0\n            -colorResolution 256 256 \n            -bumpResolution 512 512 \n            -textureCompression 0\n            -transparencyAlgorithm \"frontAndBackCull\" \n            -transpInShadows 0\n            -cullingOverride \"none\" \n            -lowQualityLighting 0\n"
		+ "            -maximumNumHardwareLights 1\n            -occlusionCulling 0\n            -shadingModel 0\n            -useBaseRenderer 0\n            -useReducedRenderer 0\n            -smallObjectCulling 0\n            -smallObjectThreshold -1 \n            -interactiveDisableShadows 0\n            -interactiveBackFaceCull 0\n            -sortTransparent 1\n            -controllers 1\n            -nurbsCurves 1\n            -nurbsSurfaces 1\n            -polymeshes 1\n            -subdivSurfaces 1\n            -planes 1\n            -lights 1\n            -cameras 1\n            -controlVertices 1\n            -hulls 1\n            -grid 1\n            -imagePlane 1\n            -joints 1\n            -ikHandles 1\n            -deformers 1\n            -dynamics 1\n            -particleInstancers 1\n            -fluids 1\n            -hairSystems 1\n            -follicles 1\n            -nCloths 1\n            -nParticles 1\n            -nRigids 1\n            -dynamicConstraints 1\n            -locators 1\n            -manipulators 1\n            -pluginShapes 1\n"
		+ "            -dimensions 1\n            -handles 1\n            -pivots 1\n            -textures 1\n            -strokes 1\n            -motionTrails 1\n            -clipGhosts 1\n            -bluePencil 1\n            -greasePencils 0\n            -shadows 0\n            -captureSequenceNumber -1\n            -width 822\n            -height 464\n            -sceneRenderFilter 0\n            $editorName;\n        modelEditor -e -viewSelected 0 $editorName;\n        modelEditor -e \n            -pluginObjects \"gpuCacheDisplayFilter\" 1 \n            $editorName;\n\t\tif (!$useSceneConfig) {\n\t\t\tpanel -e -l $label $panelName;\n\t\t}\n\t}\n\n\n\t$panelName = `sceneUIReplacement -getNextPanel \"modelPanel\" (localizedPanelLabel(\"Persp View\")) `;\n\tif (\"\" != $panelName) {\n\t\t$label = `panel -q -label $panelName`;\n\t\tmodelPanel -edit -l (localizedPanelLabel(\"Persp View\")) -mbv $menusOkayInPanels  $panelName;\n\t\t$editorName = $panelName;\n        modelEditor -e \n            -camera \"|persp\" \n            -useInteractiveMode 0\n            -displayLights \"default\" \n"
		+ "            -displayAppearance \"smoothShaded\" \n            -activeOnly 0\n            -ignorePanZoom 0\n            -wireframeOnShaded 0\n            -headsUpDisplay 1\n            -holdOuts 1\n            -selectionHiliteDisplay 1\n            -useDefaultMaterial 0\n            -bufferMode \"double\" \n            -twoSidedLighting 1\n            -backfaceCulling 0\n            -xray 0\n            -jointXray 0\n            -activeComponentsXray 0\n            -displayTextures 0\n            -smoothWireframe 0\n            -lineWidth 1\n            -textureAnisotropic 0\n            -textureHilight 1\n            -textureSampling 2\n            -textureDisplay \"modulate\" \n            -textureMaxSize 16384\n            -fogging 0\n            -fogSource \"fragment\" \n            -fogMode \"linear\" \n            -fogStart 0\n            -fogEnd 100\n            -fogDensity 0.1\n            -fogColor 0.5 0.5 0.5 1 \n            -depthOfFieldPreview 1\n            -maxConstantTransparency 1\n            -rendererName \"vp2Renderer\" \n            -objectFilterShowInHUD 1\n"
		+ "            -isFiltered 0\n            -colorResolution 256 256 \n            -bumpResolution 512 512 \n            -textureCompression 0\n            -transparencyAlgorithm \"frontAndBackCull\" \n            -transpInShadows 0\n            -cullingOverride \"none\" \n            -lowQualityLighting 0\n            -maximumNumHardwareLights 1\n            -occlusionCulling 0\n            -shadingModel 0\n            -useBaseRenderer 0\n            -useReducedRenderer 0\n            -smallObjectCulling 0\n            -smallObjectThreshold -1 \n            -interactiveDisableShadows 0\n            -interactiveBackFaceCull 0\n            -sortTransparent 1\n            -controllers 1\n            -nurbsCurves 1\n            -nurbsSurfaces 1\n            -polymeshes 1\n            -subdivSurfaces 1\n            -planes 1\n            -lights 1\n            -cameras 1\n            -controlVertices 1\n            -hulls 1\n            -grid 1\n            -imagePlane 1\n            -joints 1\n            -ikHandles 1\n            -deformers 1\n            -dynamics 1\n"
		+ "            -particleInstancers 1\n            -fluids 1\n            -hairSystems 1\n            -follicles 1\n            -nCloths 1\n            -nParticles 1\n            -nRigids 1\n            -dynamicConstraints 1\n            -locators 1\n            -manipulators 1\n            -pluginShapes 1\n            -dimensions 1\n            -handles 1\n            -pivots 1\n            -textures 1\n            -strokes 1\n            -motionTrails 1\n            -clipGhosts 1\n            -bluePencil 1\n            -greasePencils 0\n            -shadows 0\n            -captureSequenceNumber -1\n            -width 1656\n            -height 1020\n            -sceneRenderFilter 0\n            $editorName;\n        modelEditor -e -viewSelected 0 $editorName;\n        modelEditor -e \n            -pluginObjects \"gpuCacheDisplayFilter\" 1 \n            $editorName;\n\t\tif (!$useSceneConfig) {\n\t\t\tpanel -e -l $label $panelName;\n\t\t}\n\t}\n\n\n\t$panelName = `sceneUIReplacement -getNextPanel \"outlinerPanel\" (localizedPanelLabel(\"ToggledOutliner\")) `;\n\tif (\"\" != $panelName) {\n"
		+ "\t\t$label = `panel -q -label $panelName`;\n\t\toutlinerPanel -edit -l (localizedPanelLabel(\"ToggledOutliner\")) -mbv $menusOkayInPanels  $panelName;\n\t\t$editorName = $panelName;\n        outlinerEditor -e \n            -showShapes 0\n            -showAssignedMaterials 0\n            -showTimeEditor 1\n            -showReferenceNodes 1\n            -showReferenceMembers 1\n            -showAttributes 0\n            -showConnected 0\n            -showAnimCurvesOnly 0\n            -showMuteInfo 0\n            -organizeByLayer 1\n            -organizeByClip 1\n            -showAnimLayerWeight 1\n            -autoExpandLayers 1\n            -autoExpand 0\n            -showDagOnly 1\n            -showAssets 1\n            -showContainedOnly 1\n            -showPublishedAsConnected 0\n            -showParentContainers 0\n            -showContainerContents 1\n            -ignoreDagHierarchy 0\n            -expandConnections 0\n            -showUpstreamCurves 1\n            -showUnitlessCurves 1\n            -showCompounds 1\n            -showLeafs 1\n"
		+ "            -showNumericAttrsOnly 0\n            -highlightActive 1\n            -autoSelectNewObjects 0\n            -doNotSelectNewObjects 0\n            -dropIsParent 1\n            -transmitFilters 0\n            -setFilter \"defaultSetFilter\" \n            -showSetMembers 1\n            -allowMultiSelection 1\n            -alwaysToggleSelect 0\n            -directSelect 0\n            -isSet 0\n            -isSetMember 0\n            -showUfeItems 1\n            -displayMode \"DAG\" \n            -expandObjects 0\n            -setsIgnoreFilters 1\n            -containersIgnoreFilters 0\n            -editAttrName 0\n            -showAttrValues 0\n            -highlightSecondary 0\n            -showUVAttrsOnly 0\n            -showTextureNodesOnly 0\n            -attrAlphaOrder \"default\" \n            -animLayerFilterOptions \"allAffecting\" \n            -sortOrder \"none\" \n            -longNames 0\n            -niceNames 1\n            -showNamespace 1\n            -showPinIcons 0\n            -mapMotionTrails 0\n            -ignoreHiddenAttribute 0\n"
		+ "            -ignoreOutlinerColor 0\n            -renderFilterVisible 0\n            -renderFilterIndex 0\n            -selectionOrder \"chronological\" \n            -expandAttribute 0\n            $editorName;\n\t\tif (!$useSceneConfig) {\n\t\t\tpanel -e -l $label $panelName;\n\t\t}\n\t}\n\n\n\t$panelName = `sceneUIReplacement -getNextPanel \"outlinerPanel\" (localizedPanelLabel(\"Outliner\")) `;\n\tif (\"\" != $panelName) {\n\t\t$label = `panel -q -label $panelName`;\n\t\toutlinerPanel -edit -l (localizedPanelLabel(\"Outliner\")) -mbv $menusOkayInPanels  $panelName;\n\t\t$editorName = $panelName;\n        outlinerEditor -e \n            -showShapes 0\n            -showAssignedMaterials 0\n            -showTimeEditor 1\n            -showReferenceNodes 0\n            -showReferenceMembers 0\n            -showAttributes 0\n            -showConnected 0\n            -showAnimCurvesOnly 0\n            -showMuteInfo 0\n            -organizeByLayer 1\n            -organizeByClip 1\n            -showAnimLayerWeight 1\n            -autoExpandLayers 1\n            -autoExpand 0\n"
		+ "            -showDagOnly 1\n            -showAssets 1\n            -showContainedOnly 1\n            -showPublishedAsConnected 0\n            -showParentContainers 0\n            -showContainerContents 1\n            -ignoreDagHierarchy 0\n            -expandConnections 0\n            -showUpstreamCurves 1\n            -showUnitlessCurves 1\n            -showCompounds 1\n            -showLeafs 1\n            -showNumericAttrsOnly 0\n            -highlightActive 1\n            -autoSelectNewObjects 0\n            -doNotSelectNewObjects 0\n            -dropIsParent 1\n            -transmitFilters 0\n            -setFilter \"defaultSetFilter\" \n            -showSetMembers 1\n            -allowMultiSelection 1\n            -alwaysToggleSelect 0\n            -directSelect 0\n            -showUfeItems 1\n            -displayMode \"DAG\" \n            -expandObjects 0\n            -setsIgnoreFilters 1\n            -containersIgnoreFilters 0\n            -editAttrName 0\n            -showAttrValues 0\n            -highlightSecondary 0\n            -showUVAttrsOnly 0\n"
		+ "            -showTextureNodesOnly 0\n            -attrAlphaOrder \"default\" \n            -animLayerFilterOptions \"allAffecting\" \n            -sortOrder \"none\" \n            -longNames 0\n            -niceNames 1\n            -showNamespace 1\n            -showPinIcons 0\n            -mapMotionTrails 0\n            -ignoreHiddenAttribute 0\n            -ignoreOutlinerColor 0\n            -renderFilterVisible 0\n            $editorName;\n\t\tif (!$useSceneConfig) {\n\t\t\tpanel -e -l $label $panelName;\n\t\t}\n\t}\n\n\n\t$panelName = `sceneUIReplacement -getNextScriptedPanel \"graphEditor\" (localizedPanelLabel(\"Graph Editor\")) `;\n\tif (\"\" != $panelName) {\n\t\t$label = `panel -q -label $panelName`;\n\t\tscriptedPanel -edit -l (localizedPanelLabel(\"Graph Editor\")) -mbv $menusOkayInPanels  $panelName;\n\n\t\t\t$editorName = ($panelName+\"OutlineEd\");\n            outlinerEditor -e \n                -showShapes 1\n                -showAssignedMaterials 0\n                -showTimeEditor 1\n                -showReferenceNodes 0\n                -showReferenceMembers 0\n"
		+ "                -showAttributes 1\n                -showConnected 1\n                -showAnimCurvesOnly 1\n                -showMuteInfo 0\n                -organizeByLayer 1\n                -organizeByClip 1\n                -showAnimLayerWeight 1\n                -autoExpandLayers 1\n                -autoExpand 1\n                -showDagOnly 0\n                -showAssets 1\n                -showContainedOnly 0\n                -showPublishedAsConnected 0\n                -showParentContainers 0\n                -showContainerContents 0\n                -ignoreDagHierarchy 0\n                -expandConnections 1\n                -showUpstreamCurves 1\n                -showUnitlessCurves 1\n                -showCompounds 0\n                -showLeafs 1\n                -showNumericAttrsOnly 1\n                -highlightActive 0\n                -autoSelectNewObjects 1\n                -doNotSelectNewObjects 0\n                -dropIsParent 1\n                -transmitFilters 1\n                -setFilter \"0\" \n                -showSetMembers 0\n"
		+ "                -allowMultiSelection 1\n                -alwaysToggleSelect 0\n                -directSelect 0\n                -showUfeItems 1\n                -displayMode \"DAG\" \n                -expandObjects 0\n                -setsIgnoreFilters 1\n                -containersIgnoreFilters 0\n                -editAttrName 0\n                -showAttrValues 0\n                -highlightSecondary 0\n                -showUVAttrsOnly 0\n                -showTextureNodesOnly 0\n                -attrAlphaOrder \"default\" \n                -animLayerFilterOptions \"allAffecting\" \n                -sortOrder \"none\" \n                -longNames 0\n                -niceNames 1\n                -showNamespace 1\n                -showPinIcons 1\n                -mapMotionTrails 1\n                -ignoreHiddenAttribute 0\n                -ignoreOutlinerColor 0\n                -renderFilterVisible 0\n                $editorName;\n\n\t\t\t$editorName = ($panelName+\"GraphEd\");\n            animCurveEditor -e \n                -displayValues 0\n                -snapTime \"integer\" \n"
		+ "                -snapValue \"none\" \n                -showPlayRangeShades \"on\" \n                -lockPlayRangeShades \"off\" \n                -smoothness \"fine\" \n                -resultSamples 1\n                -resultScreenSamples 0\n                -resultUpdate \"delayed\" \n                -showUpstreamCurves 1\n                -keyMinScale 1\n                -stackedCurvesMin -1\n                -stackedCurvesMax 1\n                -stackedCurvesSpace 0.2\n                -preSelectionHighlight 0\n                -constrainDrag 0\n                -valueLinesToggle 1\n                -highlightAffectedCurves 0\n                $editorName;\n\t\tif (!$useSceneConfig) {\n\t\t\tpanel -e -l $label $panelName;\n\t\t}\n\t}\n\n\n\t$panelName = `sceneUIReplacement -getNextScriptedPanel \"dopeSheetPanel\" (localizedPanelLabel(\"Dope Sheet\")) `;\n\tif (\"\" != $panelName) {\n\t\t$label = `panel -q -label $panelName`;\n\t\tscriptedPanel -edit -l (localizedPanelLabel(\"Dope Sheet\")) -mbv $menusOkayInPanels  $panelName;\n\n\t\t\t$editorName = ($panelName+\"OutlineEd\");\n            outlinerEditor -e \n"
		+ "                -showShapes 1\n                -showAssignedMaterials 0\n                -showTimeEditor 1\n                -showReferenceNodes 0\n                -showReferenceMembers 0\n                -showAttributes 1\n                -showConnected 1\n                -showAnimCurvesOnly 1\n                -showMuteInfo 0\n                -organizeByLayer 1\n                -organizeByClip 1\n                -showAnimLayerWeight 1\n                -autoExpandLayers 1\n                -autoExpand 0\n                -showDagOnly 0\n                -showAssets 1\n                -showContainedOnly 0\n                -showPublishedAsConnected 0\n                -showParentContainers 0\n                -showContainerContents 0\n                -ignoreDagHierarchy 0\n                -expandConnections 1\n                -showUpstreamCurves 1\n                -showUnitlessCurves 0\n                -showCompounds 1\n                -showLeafs 1\n                -showNumericAttrsOnly 1\n                -highlightActive 0\n                -autoSelectNewObjects 0\n"
		+ "                -doNotSelectNewObjects 1\n                -dropIsParent 1\n                -transmitFilters 0\n                -setFilter \"0\" \n                -showSetMembers 0\n                -allowMultiSelection 1\n                -alwaysToggleSelect 0\n                -directSelect 0\n                -showUfeItems 1\n                -displayMode \"DAG\" \n                -expandObjects 0\n                -setsIgnoreFilters 1\n                -containersIgnoreFilters 0\n                -editAttrName 0\n                -showAttrValues 0\n                -highlightSecondary 0\n                -showUVAttrsOnly 0\n                -showTextureNodesOnly 0\n                -attrAlphaOrder \"default\" \n                -animLayerFilterOptions \"allAffecting\" \n                -sortOrder \"none\" \n                -longNames 0\n                -niceNames 1\n                -showNamespace 1\n                -showPinIcons 0\n                -mapMotionTrails 1\n                -ignoreHiddenAttribute 0\n                -ignoreOutlinerColor 0\n                -renderFilterVisible 0\n"
		+ "                $editorName;\n\n\t\t\t$editorName = ($panelName+\"DopeSheetEd\");\n            dopeSheetEditor -e \n                -displayValues 0\n                -snapTime \"integer\" \n                -snapValue \"none\" \n                -outliner \"dopeSheetPanel1OutlineEd\" \n                -showSummary 1\n                -showScene 0\n                -hierarchyBelow 0\n                -showTicks 1\n                -selectionWindow 0 0 0 0 \n                $editorName;\n\t\tif (!$useSceneConfig) {\n\t\t\tpanel -e -l $label $panelName;\n\t\t}\n\t}\n\n\n\t$panelName = `sceneUIReplacement -getNextScriptedPanel \"timeEditorPanel\" (localizedPanelLabel(\"Time Editor\")) `;\n\tif (\"\" != $panelName) {\n\t\t$label = `panel -q -label $panelName`;\n\t\tscriptedPanel -edit -l (localizedPanelLabel(\"Time Editor\")) -mbv $menusOkayInPanels  $panelName;\n\t\tif (!$useSceneConfig) {\n\t\t\tpanel -e -l $label $panelName;\n\t\t}\n\t}\n\n\n\t$panelName = `sceneUIReplacement -getNextScriptedPanel \"clipEditorPanel\" (localizedPanelLabel(\"Trax Editor\")) `;\n\tif (\"\" != $panelName) {\n\t\t$label = `panel -q -label $panelName`;\n"
		+ "\t\tscriptedPanel -edit -l (localizedPanelLabel(\"Trax Editor\")) -mbv $menusOkayInPanels  $panelName;\n\n\t\t\t$editorName = clipEditorNameFromPanel($panelName);\n            clipEditor -e \n                -displayValues 0\n                -snapTime \"none\" \n                -snapValue \"none\" \n                -initialized 0\n                -manageSequencer 0 \n                $editorName;\n\t\tif (!$useSceneConfig) {\n\t\t\tpanel -e -l $label $panelName;\n\t\t}\n\t}\n\n\n\t$panelName = `sceneUIReplacement -getNextScriptedPanel \"sequenceEditorPanel\" (localizedPanelLabel(\"Camera Sequencer\")) `;\n\tif (\"\" != $panelName) {\n\t\t$label = `panel -q -label $panelName`;\n\t\tscriptedPanel -edit -l (localizedPanelLabel(\"Camera Sequencer\")) -mbv $menusOkayInPanels  $panelName;\n\n\t\t\t$editorName = sequenceEditorNameFromPanel($panelName);\n            clipEditor -e \n                -displayValues 0\n                -snapTime \"none\" \n                -snapValue \"none\" \n                -initialized 0\n                -manageSequencer 1 \n                $editorName;\n"
		+ "\t\tif (!$useSceneConfig) {\n\t\t\tpanel -e -l $label $panelName;\n\t\t}\n\t}\n\n\n\t$panelName = `sceneUIReplacement -getNextScriptedPanel \"hyperGraphPanel\" (localizedPanelLabel(\"Hypergraph Hierarchy\")) `;\n\tif (\"\" != $panelName) {\n\t\t$label = `panel -q -label $panelName`;\n\t\tscriptedPanel -edit -l (localizedPanelLabel(\"Hypergraph Hierarchy\")) -mbv $menusOkayInPanels  $panelName;\n\n\t\t\t$editorName = ($panelName+\"HyperGraphEd\");\n            hyperGraph -e \n                -graphLayoutStyle \"hierarchicalLayout\" \n                -orientation \"horiz\" \n                -mergeConnections 0\n                -zoom 1\n                -animateTransition 0\n                -showRelationships 1\n                -showShapes 0\n                -showDeformers 0\n                -showExpressions 0\n                -showConstraints 0\n                -showConnectionFromSelected 0\n                -showConnectionToSelected 0\n                -showConstraintLabels 0\n                -showUnderworld 0\n                -showInvisible 0\n                -transitionFrames 1\n"
		+ "                -opaqueContainers 0\n                -freeform 0\n                -imagePosition 0 0 \n                -imageScale 1\n                -imageEnabled 0\n                -graphType \"DAG\" \n                -heatMapDisplay 0\n                -updateSelection 1\n                -updateNodeAdded 1\n                -useDrawOverrideColor 0\n                -limitGraphTraversal -1\n                -range 0 0 \n                -iconSize \"smallIcons\" \n                -showCachedConnections 0\n                $editorName;\n\t\tif (!$useSceneConfig) {\n\t\t\tpanel -e -l $label $panelName;\n\t\t}\n\t}\n\n\n\t$panelName = `sceneUIReplacement -getNextScriptedPanel \"hyperShadePanel\" (localizedPanelLabel(\"Hypershade\")) `;\n\tif (\"\" != $panelName) {\n\t\t$label = `panel -q -label $panelName`;\n\t\tscriptedPanel -edit -l (localizedPanelLabel(\"Hypershade\")) -mbv $menusOkayInPanels  $panelName;\n\t\tif (!$useSceneConfig) {\n\t\t\tpanel -e -l $label $panelName;\n\t\t}\n\t}\n\n\n\t$panelName = `sceneUIReplacement -getNextScriptedPanel \"visorPanel\" (localizedPanelLabel(\"Visor\")) `;\n"
		+ "\tif (\"\" != $panelName) {\n\t\t$label = `panel -q -label $panelName`;\n\t\tscriptedPanel -edit -l (localizedPanelLabel(\"Visor\")) -mbv $menusOkayInPanels  $panelName;\n\t\tif (!$useSceneConfig) {\n\t\t\tpanel -e -l $label $panelName;\n\t\t}\n\t}\n\n\n\t$panelName = `sceneUIReplacement -getNextScriptedPanel \"nodeEditorPanel\" (localizedPanelLabel(\"Node Editor\")) `;\n\tif ($nodeEditorPanelVisible || $nodeEditorWorkspaceControlOpen) {\n\t\tif (\"\" == $panelName) {\n\t\t\tif ($useSceneConfig) {\n\t\t\t\t$panelName = `scriptedPanel -unParent  -type \"nodeEditorPanel\" -l (localizedPanelLabel(\"Node Editor\")) -mbv $menusOkayInPanels `;\n\n\t\t\t$editorName = ($panelName+\"NodeEditorEd\");\n            nodeEditor -e \n                -allAttributes 0\n                -allNodes 0\n                -autoSizeNodes 1\n                -consistentNameSize 1\n                -createNodeCommand \"nodeEdCreateNodeCommand\" \n                -connectNodeOnCreation 0\n                -connectOnDrop 0\n                -copyConnectionsOnPaste 0\n                -connectionStyle \"bezier\" \n                -defaultPinnedState 0\n"
		+ "                -additiveGraphingMode 0\n                -connectedGraphingMode 1\n                -settingsChangedCallback \"nodeEdSyncControls\" \n                -traversalDepthLimit -1\n                -keyPressCommand \"nodeEdKeyPressCommand\" \n                -nodeTitleMode \"name\" \n                -gridSnap 0\n                -gridVisibility 1\n                -crosshairOnEdgeDragging 0\n                -popupMenuScript \"nodeEdBuildPanelMenus\" \n                -showNamespace 1\n                -showShapes 1\n                -showSGShapes 0\n                -showTransforms 1\n                -useAssets 1\n                -syncedSelection 1\n                -extendToShapes 1\n                -showUnitConversions 0\n                -editorMode \"default\" \n                -hasWatchpoint 0\n                $editorName;\n\t\t\t}\n\t\t} else {\n\t\t\t$label = `panel -q -label $panelName`;\n\t\t\tscriptedPanel -edit -l (localizedPanelLabel(\"Node Editor\")) -mbv $menusOkayInPanels  $panelName;\n\n\t\t\t$editorName = ($panelName+\"NodeEditorEd\");\n            nodeEditor -e \n"
		+ "                -allAttributes 0\n                -allNodes 0\n                -autoSizeNodes 1\n                -consistentNameSize 1\n                -createNodeCommand \"nodeEdCreateNodeCommand\" \n                -connectNodeOnCreation 0\n                -connectOnDrop 0\n                -copyConnectionsOnPaste 0\n                -connectionStyle \"bezier\" \n                -defaultPinnedState 0\n                -additiveGraphingMode 0\n                -connectedGraphingMode 1\n                -settingsChangedCallback \"nodeEdSyncControls\" \n                -traversalDepthLimit -1\n                -keyPressCommand \"nodeEdKeyPressCommand\" \n                -nodeTitleMode \"name\" \n                -gridSnap 0\n                -gridVisibility 1\n                -crosshairOnEdgeDragging 0\n                -popupMenuScript \"nodeEdBuildPanelMenus\" \n                -showNamespace 1\n                -showShapes 1\n                -showSGShapes 0\n                -showTransforms 1\n                -useAssets 1\n                -syncedSelection 1\n"
		+ "                -extendToShapes 1\n                -showUnitConversions 0\n                -editorMode \"default\" \n                -hasWatchpoint 0\n                $editorName;\n\t\t\tif (!$useSceneConfig) {\n\t\t\t\tpanel -e -l $label $panelName;\n\t\t\t}\n\t\t}\n\t}\n\n\n\t$panelName = `sceneUIReplacement -getNextScriptedPanel \"createNodePanel\" (localizedPanelLabel(\"Create Node\")) `;\n\tif (\"\" != $panelName) {\n\t\t$label = `panel -q -label $panelName`;\n\t\tscriptedPanel -edit -l (localizedPanelLabel(\"Create Node\")) -mbv $menusOkayInPanels  $panelName;\n\t\tif (!$useSceneConfig) {\n\t\t\tpanel -e -l $label $panelName;\n\t\t}\n\t}\n\n\n\t$panelName = `sceneUIReplacement -getNextScriptedPanel \"polyTexturePlacementPanel\" (localizedPanelLabel(\"UV Editor\")) `;\n\tif (\"\" != $panelName) {\n\t\t$label = `panel -q -label $panelName`;\n\t\tscriptedPanel -edit -l (localizedPanelLabel(\"UV Editor\")) -mbv $menusOkayInPanels  $panelName;\n\t\tif (!$useSceneConfig) {\n\t\t\tpanel -e -l $label $panelName;\n\t\t}\n\t}\n\n\n\t$panelName = `sceneUIReplacement -getNextScriptedPanel \"renderWindowPanel\" (localizedPanelLabel(\"Render View\")) `;\n"
		+ "\tif (\"\" != $panelName) {\n\t\t$label = `panel -q -label $panelName`;\n\t\tscriptedPanel -edit -l (localizedPanelLabel(\"Render View\")) -mbv $menusOkayInPanels  $panelName;\n\t\tif (!$useSceneConfig) {\n\t\t\tpanel -e -l $label $panelName;\n\t\t}\n\t}\n\n\n\t$panelName = `sceneUIReplacement -getNextPanel \"shapePanel\" (localizedPanelLabel(\"Shape Editor\")) `;\n\tif (\"\" != $panelName) {\n\t\t$label = `panel -q -label $panelName`;\n\t\tshapePanel -edit -l (localizedPanelLabel(\"Shape Editor\")) -mbv $menusOkayInPanels  $panelName;\n\t\tif (!$useSceneConfig) {\n\t\t\tpanel -e -l $label $panelName;\n\t\t}\n\t}\n\n\n\t$panelName = `sceneUIReplacement -getNextPanel \"posePanel\" (localizedPanelLabel(\"Pose Editor\")) `;\n\tif (\"\" != $panelName) {\n\t\t$label = `panel -q -label $panelName`;\n\t\tposePanel -edit -l (localizedPanelLabel(\"Pose Editor\")) -mbv $menusOkayInPanels  $panelName;\n\t\tif (!$useSceneConfig) {\n\t\t\tpanel -e -l $label $panelName;\n\t\t}\n\t}\n\n\n\t$panelName = `sceneUIReplacement -getNextScriptedPanel \"dynRelEdPanel\" (localizedPanelLabel(\"Dynamic Relationships\")) `;\n\tif (\"\" != $panelName) {\n"
		+ "\t\t$label = `panel -q -label $panelName`;\n\t\tscriptedPanel -edit -l (localizedPanelLabel(\"Dynamic Relationships\")) -mbv $menusOkayInPanels  $panelName;\n\t\tif (!$useSceneConfig) {\n\t\t\tpanel -e -l $label $panelName;\n\t\t}\n\t}\n\n\n\t$panelName = `sceneUIReplacement -getNextScriptedPanel \"relationshipPanel\" (localizedPanelLabel(\"Relationship Editor\")) `;\n\tif (\"\" != $panelName) {\n\t\t$label = `panel -q -label $panelName`;\n\t\tscriptedPanel -edit -l (localizedPanelLabel(\"Relationship Editor\")) -mbv $menusOkayInPanels  $panelName;\n\t\tif (!$useSceneConfig) {\n\t\t\tpanel -e -l $label $panelName;\n\t\t}\n\t}\n\n\n\t$panelName = `sceneUIReplacement -getNextScriptedPanel \"referenceEditorPanel\" (localizedPanelLabel(\"Reference Editor\")) `;\n\tif (\"\" != $panelName) {\n\t\t$label = `panel -q -label $panelName`;\n\t\tscriptedPanel -edit -l (localizedPanelLabel(\"Reference Editor\")) -mbv $menusOkayInPanels  $panelName;\n\t\tif (!$useSceneConfig) {\n\t\t\tpanel -e -l $label $panelName;\n\t\t}\n\t}\n\n\n\t$panelName = `sceneUIReplacement -getNextScriptedPanel \"dynPaintScriptedPanelType\" (localizedPanelLabel(\"Paint Effects\")) `;\n"
		+ "\tif (\"\" != $panelName) {\n\t\t$label = `panel -q -label $panelName`;\n\t\tscriptedPanel -edit -l (localizedPanelLabel(\"Paint Effects\")) -mbv $menusOkayInPanels  $panelName;\n\t\tif (!$useSceneConfig) {\n\t\t\tpanel -e -l $label $panelName;\n\t\t}\n\t}\n\n\n\t$panelName = `sceneUIReplacement -getNextScriptedPanel \"scriptEditorPanel\" (localizedPanelLabel(\"Script Editor\")) `;\n\tif (\"\" != $panelName) {\n\t\t$label = `panel -q -label $panelName`;\n\t\tscriptedPanel -edit -l (localizedPanelLabel(\"Script Editor\")) -mbv $menusOkayInPanels  $panelName;\n\t\tif (!$useSceneConfig) {\n\t\t\tpanel -e -l $label $panelName;\n\t\t}\n\t}\n\n\n\t$panelName = `sceneUIReplacement -getNextScriptedPanel \"profilerPanel\" (localizedPanelLabel(\"Profiler Tool\")) `;\n\tif (\"\" != $panelName) {\n\t\t$label = `panel -q -label $panelName`;\n\t\tscriptedPanel -edit -l (localizedPanelLabel(\"Profiler Tool\")) -mbv $menusOkayInPanels  $panelName;\n\t\tif (!$useSceneConfig) {\n\t\t\tpanel -e -l $label $panelName;\n\t\t}\n\t}\n\n\n\t$panelName = `sceneUIReplacement -getNextScriptedPanel \"contentBrowserPanel\" (localizedPanelLabel(\"Content Browser\")) `;\n"
		+ "\tif (\"\" != $panelName) {\n\t\t$label = `panel -q -label $panelName`;\n\t\tscriptedPanel -edit -l (localizedPanelLabel(\"Content Browser\")) -mbv $menusOkayInPanels  $panelName;\n\t\tif (!$useSceneConfig) {\n\t\t\tpanel -e -l $label $panelName;\n\t\t}\n\t}\n\n\n\tif ($useSceneConfig) {\n        string $configName = `getPanel -cwl (localizedPanelLabel(\"Current Layout\"))`;\n        if (\"\" != $configName) {\n\t\t\tpanelConfiguration -edit -label (localizedPanelLabel(\"Current Layout\")) \n\t\t\t\t-userCreated false\n\t\t\t\t-defaultImage \"vacantCell.xP:/\"\n\t\t\t\t-image \"\"\n\t\t\t\t-sc false\n\t\t\t\t-configString \"global string $gMainPane; paneLayout -e -cn \\\"single\\\" -ps 1 100 100 $gMainPane;\"\n\t\t\t\t-removeAllPanels\n\t\t\t\t-ap false\n\t\t\t\t\t(localizedPanelLabel(\"Persp View\")) \n\t\t\t\t\t\"modelPanel\"\n"
		+ "\t\t\t\t\t\"$panelName = `modelPanel -unParent -l (localizedPanelLabel(\\\"Persp View\\\")) -mbv $menusOkayInPanels `;\\n$editorName = $panelName;\\nmodelEditor -e \\n    -cam `findStartUpCamera persp` \\n    -useInteractiveMode 0\\n    -displayLights \\\"default\\\" \\n    -displayAppearance \\\"smoothShaded\\\" \\n    -activeOnly 0\\n    -ignorePanZoom 0\\n    -wireframeOnShaded 0\\n    -headsUpDisplay 1\\n    -holdOuts 1\\n    -selectionHiliteDisplay 1\\n    -useDefaultMaterial 0\\n    -bufferMode \\\"double\\\" \\n    -twoSidedLighting 1\\n    -backfaceCulling 0\\n    -xray 0\\n    -jointXray 0\\n    -activeComponentsXray 0\\n    -displayTextures 0\\n    -smoothWireframe 0\\n    -lineWidth 1\\n    -textureAnisotropic 0\\n    -textureHilight 1\\n    -textureSampling 2\\n    -textureDisplay \\\"modulate\\\" \\n    -textureMaxSize 16384\\n    -fogging 0\\n    -fogSource \\\"fragment\\\" \\n    -fogMode \\\"linear\\\" \\n    -fogStart 0\\n    -fogEnd 100\\n    -fogDensity 0.1\\n    -fogColor 0.5 0.5 0.5 1 \\n    -depthOfFieldPreview 1\\n    -maxConstantTransparency 1\\n    -rendererName \\\"vp2Renderer\\\" \\n    -objectFilterShowInHUD 1\\n    -isFiltered 0\\n    -colorResolution 256 256 \\n    -bumpResolution 512 512 \\n    -textureCompression 0\\n    -transparencyAlgorithm \\\"frontAndBackCull\\\" \\n    -transpInShadows 0\\n    -cullingOverride \\\"none\\\" \\n    -lowQualityLighting 0\\n    -maximumNumHardwareLights 1\\n    -occlusionCulling 0\\n    -shadingModel 0\\n    -useBaseRenderer 0\\n    -useReducedRenderer 0\\n    -smallObjectCulling 0\\n    -smallObjectThreshold -1 \\n    -interactiveDisableShadows 0\\n    -interactiveBackFaceCull 0\\n    -sortTransparent 1\\n    -controllers 1\\n    -nurbsCurves 1\\n    -nurbsSurfaces 1\\n    -polymeshes 1\\n    -subdivSurfaces 1\\n    -planes 1\\n    -lights 1\\n    -cameras 1\\n    -controlVertices 1\\n    -hulls 1\\n    -grid 1\\n    -imagePlane 1\\n    -joints 1\\n    -ikHandles 1\\n    -deformers 1\\n    -dynamics 1\\n    -particleInstancers 1\\n    -fluids 1\\n    -hairSystems 1\\n    -follicles 1\\n    -nCloths 1\\n    -nParticles 1\\n    -nRigids 1\\n    -dynamicConstraints 1\\n    -locators 1\\n    -manipulators 1\\n    -pluginShapes 1\\n    -dimensions 1\\n    -handles 1\\n    -pivots 1\\n    -textures 1\\n    -strokes 1\\n    -motionTrails 1\\n    -clipGhosts 1\\n    -bluePencil 1\\n    -greasePencils 0\\n    -shadows 0\\n    -captureSequenceNumber -1\\n    -width 1656\\n    -height 1020\\n    -sceneRenderFilter 0\\n    $editorName;\\nmodelEditor -e -viewSelected 0 $editorName;\\nmodelEditor -e \\n    -pluginObjects \\\"gpuCacheDisplayFilter\\\" 1 \\n    $editorName\"\n"
		+ "\t\t\t\t\t\"modelPanel -edit -l (localizedPanelLabel(\\\"Persp View\\\")) -mbv $menusOkayInPanels  $panelName;\\n$editorName = $panelName;\\nmodelEditor -e \\n    -cam `findStartUpCamera persp` \\n    -useInteractiveMode 0\\n    -displayLights \\\"default\\\" \\n    -displayAppearance \\\"smoothShaded\\\" \\n    -activeOnly 0\\n    -ignorePanZoom 0\\n    -wireframeOnShaded 0\\n    -headsUpDisplay 1\\n    -holdOuts 1\\n    -selectionHiliteDisplay 1\\n    -useDefaultMaterial 0\\n    -bufferMode \\\"double\\\" \\n    -twoSidedLighting 1\\n    -backfaceCulling 0\\n    -xray 0\\n    -jointXray 0\\n    -activeComponentsXray 0\\n    -displayTextures 0\\n    -smoothWireframe 0\\n    -lineWidth 1\\n    -textureAnisotropic 0\\n    -textureHilight 1\\n    -textureSampling 2\\n    -textureDisplay \\\"modulate\\\" \\n    -textureMaxSize 16384\\n    -fogging 0\\n    -fogSource \\\"fragment\\\" \\n    -fogMode \\\"linear\\\" \\n    -fogStart 0\\n    -fogEnd 100\\n    -fogDensity 0.1\\n    -fogColor 0.5 0.5 0.5 1 \\n    -depthOfFieldPreview 1\\n    -maxConstantTransparency 1\\n    -rendererName \\\"vp2Renderer\\\" \\n    -objectFilterShowInHUD 1\\n    -isFiltered 0\\n    -colorResolution 256 256 \\n    -bumpResolution 512 512 \\n    -textureCompression 0\\n    -transparencyAlgorithm \\\"frontAndBackCull\\\" \\n    -transpInShadows 0\\n    -cullingOverride \\\"none\\\" \\n    -lowQualityLighting 0\\n    -maximumNumHardwareLights 1\\n    -occlusionCulling 0\\n    -shadingModel 0\\n    -useBaseRenderer 0\\n    -useReducedRenderer 0\\n    -smallObjectCulling 0\\n    -smallObjectThreshold -1 \\n    -interactiveDisableShadows 0\\n    -interactiveBackFaceCull 0\\n    -sortTransparent 1\\n    -controllers 1\\n    -nurbsCurves 1\\n    -nurbsSurfaces 1\\n    -polymeshes 1\\n    -subdivSurfaces 1\\n    -planes 1\\n    -lights 1\\n    -cameras 1\\n    -controlVertices 1\\n    -hulls 1\\n    -grid 1\\n    -imagePlane 1\\n    -joints 1\\n    -ikHandles 1\\n    -deformers 1\\n    -dynamics 1\\n    -particleInstancers 1\\n    -fluids 1\\n    -hairSystems 1\\n    -follicles 1\\n    -nCloths 1\\n    -nParticles 1\\n    -nRigids 1\\n    -dynamicConstraints 1\\n    -locators 1\\n    -manipulators 1\\n    -pluginShapes 1\\n    -dimensions 1\\n    -handles 1\\n    -pivots 1\\n    -textures 1\\n    -strokes 1\\n    -motionTrails 1\\n    -clipGhosts 1\\n    -bluePencil 1\\n    -greasePencils 0\\n    -shadows 0\\n    -captureSequenceNumber -1\\n    -width 1656\\n    -height 1020\\n    -sceneRenderFilter 0\\n    $editorName;\\nmodelEditor -e -viewSelected 0 $editorName;\\nmodelEditor -e \\n    -pluginObjects \\\"gpuCacheDisplayFilter\\\" 1 \\n    $editorName\"\n"
		+ "\t\t\t\t$configName;\n\n            setNamedPanelLayout (localizedPanelLabel(\"Current Layout\"));\n        }\n\n        panelHistory -e -clear mainPanelHistory;\n        sceneUIReplacement -clear;\n\t}\n\n\ngrid -spacing 5 -size 12 -divisions 5 -displayAxes yes -displayGridLines yes -displayDivisionLines yes -displayPerspectiveLabels no -displayOrthographicLabels no -displayAxesBold yes -perspectiveLabelPosition axis -orthographicLabelPosition edge;\nviewManip -drawCompass 0 -compassAngle 0 -frontParameters \"\" -homeParameters \"\" -selectionLockParameters \"\";\n}\n");
	setAttr ".st" 3;
createNode script -n "sceneConfigurationScriptNode";
	rename -uid "AA6D5718-E043-4419-CFEA-64B2CFD270FF";
	setAttr ".b" -type "string" "playbackOptions -min 0 -max 1 -ast 0 -aet 272.4 ";
	setAttr ".st" 6;
createNode polyExtrudeFace -n "polyExtrudeFace1";
	rename -uid "23D8DC94-4044-5A7D-679F-A1B8BDE0FBC8";
	setAttr ".ics" -type "componentList" 1 "f[0:799]";
	setAttr ".ix" -type "matrix" 1 0 0 0 0 2.2204460492503131e-16 1 0 0 -1 2.2204460492503131e-16 0
		 0 0 0 1;
	setAttr ".ws" yes;
	setAttr ".pvt" -type "float3" -0.30612564 -16.840891 -1.4305115e-06 ;
	setAttr ".rs" 776315115;
	setAttr ".lt" -type "double3" 2.3592239273284576e-16 -4.8572257327350599e-17 0.56233981024015112 ;
	setAttr ".c[0]"  0 1 1;
	setAttr ".cbn" -type "double3" -34.117755889892578 -33.681789398193359 -9.8386478424072212 ;
	setAttr ".cbx" -type "double3" 33.505504608154297 7.8678131103515625e-06 9.8386449813842827 ;
createNode polyTweak -n "polyTweak1";
	rename -uid "CD173BFE-4E45-AD53-2AD5-29A0C7A23BA6";
	setAttr ".uopa" yes;
	setAttr -s 564 ".tk";
	setAttr ".tk[2]" -type "float3" 1.0840284 -6.0175656e-17 0.27100706 ;
	setAttr ".tk[3]" -type "float3" 1.0840284 -6.0175656e-17 0.27100706 ;
	setAttr ".tk[4]" -type "float3" 0.9936927 2.1176724e-07 -0.30571789 ;
	setAttr ".tk[5]" -type "float3" 0.9936927 -2.0058554e-17 0.090335697 ;
	setAttr ".tk[6]" -type "float3" 0 -1.9073486e-06 0 ;
	setAttr ".tk[7]" -type "float3" 0 -5.6843419e-14 0 ;
	setAttr ".tk[8]" -type "float3" 1.4002033 6.0175662e-17 -0.27100709 ;
	setAttr ".tk[10]" -type "float3" 0.89145058 2.2542302e-07 -1.4924736 ;
	setAttr ".tk[11]" -type "float3" 0.89145058 1.2371362e-16 -0.55715662 ;
	setAttr ".tk[12]" -type "float3" 0.89145058 1.2371362e-16 -0.55715662 ;
	setAttr ".tk[14]" -type "float3" 0 3.2877517e-07 -1.741968 ;
	setAttr ".tk[15]" -type "float3" 0.062250379 -1.3131243e-16 0.59137863 ;
	setAttr ".tk[17]" -type "float3" -0.43575266 -1.242245e-07 0.39525187 ;
	setAttr ".tk[18]" -type "float3" -0.43575266 7.6022987e-17 -0.3423771 ;
	setAttr ".tk[20]" -type "float3" 0.26438141 1.9801024e-15 -0.91758919 ;
	setAttr ".tk[22]" -type "float3" 0.46761796 -1.5110162e-07 0.62242568 ;
	setAttr ".tk[23]" -type "float3" 0.33436033 5.3121511e-08 -2.3815069 ;
	setAttr ".tk[24]" -type "float3" 1.170413 5.3480482e-17 -0.24085468 ;
	setAttr ".tk[25]" -type "float3" 0.58163905 1.9959511e-16 -0.89889646 ;
	setAttr ".tk[26]" -type "float3" 0.32894149 -1.3653408e-17 0.061489485 ;
	setAttr ".tk[27]" -type "float3" 0.22318891 -1.4867368e-16 0.66956675 ;
	setAttr ".tk[28]" -type "float3" 0 -2.8421709e-14 1.1920929e-07 ;
	setAttr ".tk[29]" -type "float3" -0.95494008 1.7077039e-16 -0.76908147 ;
	setAttr ".tk[30]" -type "float3" -2.0075927 1.7077039e-16 -1.7474976 ;
	setAttr ".tk[31]" -type "float3" -0.21467242 -3.4695217e-17 0.15625337 ;
	setAttr ".tk[33]" -type "float3" 1.0167634 4.1967693e-17 0.78238589 ;
	setAttr ".tk[34]" -type "float3" -0.96471411 1.5937661e-16 -0.71776843 ;
	setAttr ".tk[36]" -type "float3" -0.71382976 2.812485e-07 -0.92815799 ;
	setAttr ".tk[37]" -type "float3" 1.1920929e-07 0 -1.4901161e-08 ;
	setAttr ".tk[38]" -type "float3" -0.85727167 -1.5862717e-17 0.071439326 ;
	setAttr ".tk[39]" -type "float3" -0.85727167 -1.5862717e-17 0.071439326 ;
	setAttr ".tk[43]" -type "float3" 1.0840284 0 0.27100706 ;
	setAttr ".tk[44]" -type "float3" 1.0840284 0 0.27100706 ;
	setAttr ".tk[45]" -type "float3" 0.9936927 0.36596552 -0.28780627 ;
	setAttr ".tk[46]" -type "float3" 0.9936927 0 0.090335697 ;
	setAttr ".tk[47]" -type "float3" 0.9936927 -1.9073486e-06 0.090335697 ;
	setAttr ".tk[48]" -type "float3" 0 0 -1.1920929e-07 ;
	setAttr ".tk[49]" -type "float3" 1.4002033 0 -0.27100709 ;
	setAttr ".tk[51]" -type "float3" 0.39000958 0.3895646 -0.9328807 ;
	setAttr ".tk[52]" -type "float3" 0.89145058 0 -0.55715662 ;
	setAttr ".tk[53]" -type "float3" 0.89145058 0 -0.55715662 ;
	setAttr ".tk[54]" -type "float3" 0.50144088 0 -0.44572523 ;
	setAttr ".tk[55]" -type "float3" 0.062250379 0.56817251 -0.93449116 ;
	setAttr ".tk[56]" -type "float3" 0.062250379 0 0.59137863 ;
	setAttr ".tk[58]" -type "float3" -0.43575266 -0.2146785 0.36218953 ;
	setAttr ".tk[59]" -type "float3" -0.43575266 0 -0.3423771 ;
	setAttr ".tk[61]" -type "float3" 0.26438141 1.7763568e-15 -0.91758919 ;
	setAttr ".tk[63]" -type "float3" 0.46761796 -0.26112616 0.58157653 ;
	setAttr ".tk[64]" -type "float3" 0.33436033 0.091801956 -2.367368 ;
	setAttr ".tk[65]" -type "float3" 1.170413 0 -0.24085468 ;
	setAttr ".tk[66]" -type "float3" 0.58163905 0 -0.89889646 ;
	setAttr ".tk[67]" -type "float3" 0.32894149 0 0.061489485 ;
	setAttr ".tk[68]" -type "float3" 0.22318891 0 0.66956675 ;
	setAttr ".tk[69]" -type "float3" 0.22318891 -5.9604645e-08 0.66956675 ;
	setAttr ".tk[70]" -type "float3" -0.3172577 0 -0.29081956 ;
	setAttr ".tk[71]" -type "float3" -1.9628713 0 -1.7027763 ;
	setAttr ".tk[72]" -type "float3" -0.21467242 0 0.15625337 ;
	setAttr ".tk[74]" -type "float3" 0.94391161 0 0.73774183 ;
	setAttr ".tk[75]" -type "float3" -0.96471411 0 -0.71776843 ;
	setAttr ".tk[77]" -type "float3" -0.71382976 0.48603937 -0.90436953 ;
	setAttr ".tk[78]" -type "float3" 0 0 1.4901161e-08 ;
	setAttr ".tk[79]" -type "float3" -0.85727167 0 0.071439326 ;
	setAttr ".tk[80]" -type "float3" -0.85727167 0 0.071439326 ;
	setAttr ".tk[84]" -type "float3" 1.0840284 0 0.27100706 ;
	setAttr ".tk[86]" -type "float3" 0.9936927 0.69610757 -0.2358249 ;
	setAttr ".tk[87]" -type "float3" 0.9936927 0 0.090335697 ;
	setAttr ".tk[88]" -type "float3" 0 -1.9073486e-06 0 ;
	setAttr ".tk[89]" -type "float3" 0 -1.1920929e-07 -1.1920929e-07 ;
	setAttr ".tk[90]" -type "float3" 1.4002033 0 -0.27100709 ;
	setAttr ".tk[91]" -type "float3" 0.39000958 0 -0.11143132 ;
	setAttr ".tk[92]" -type "float3" 0.39000958 0.74099576 -0.80626404 ;
	setAttr ".tk[93]" -type "float3" 0.89145058 0 -0.55715662 ;
	setAttr ".tk[94]" -type "float3" 0.89145058 0 -0.55715662 ;
	setAttr ".tk[95]" -type "float3" 0.39000958 0 -0.11143132 ;
	setAttr ".tk[96]" -type "float3" 0.062250379 1.0807282 -0.70179594 ;
	setAttr ".tk[97]" -type "float3" 0.062250379 0 0.59137863 ;
	setAttr ".tk[99]" -type "float3" -0.43575266 -0.4083426 0.26623911 ;
	setAttr ".tk[100]" -type "float3" -0.43575266 0 -0.3423771 ;
	setAttr ".tk[102]" -type "float3" 0.26438141 1.7763568e-15 -0.91758919 ;
	setAttr ".tk[104]" -type "float3" 0.46761796 -0.49669135 0.46302783 ;
	setAttr ".tk[105]" -type "float3" 0.33436033 0.17461765 -2.3263376 ;
	setAttr ".tk[106]" -type "float3" 0.58877444 0 0.65804213 ;
	setAttr ".tk[107]" -type "float3" 0.58163905 0 -0.89889646 ;
	setAttr ".tk[108]" -type "float3" 0.22318891 0 0.66956675 ;
	setAttr ".tk[109]" -type "float3" 0.22318891 0 0.66956675 ;
	setAttr ".tk[110]" -type "float3" 0.22318891 0 0.66956675 ;
	setAttr ".tk[112]" -type "float3" -1.4645834 0 -1.2351964 ;
	setAttr ".tk[113]" -type "float3" -0.21467242 0 0.15625337 ;
	setAttr ".tk[115]" -type "float3" 1.2179883 0 0.75594211 ;
	setAttr ".tk[116]" -type "float3" -0.62101859 0 -0.18900569 ;
	setAttr ".tk[118]" -type "float3" 0.75602275 0.9245016 0.028940391 ;
	setAttr ".tk[119]" -type "float3" 0.75602275 0 0.40501219 ;
	setAttr ".tk[120]" -type "float3" -0.85727167 0 0.071439326 ;
	setAttr ".tk[121]" -type "float3" -0.85727167 0 0.071439326 ;
	setAttr ".tk[127]" -type "float3" 0.9936927 0.95810986 -0.15486196 ;
	setAttr ".tk[128]" -type "float3" 0.9936927 0 0.090335697 ;
	setAttr ".tk[129]" -type "float3" 0 -1.9073486e-06 0 ;
	setAttr ".tk[133]" -type "float3" 0.39000958 1.0198932 -0.60905415 ;
	setAttr ".tk[134]" -type "float3" 0.39000958 0 -0.11143132 ;
	setAttr ".tk[135]" -type "float3" 0.39000958 0 -0.11143132 ;
	setAttr ".tk[137]" -type "float3" 0 1.4874946 -1.0666606 ;
	setAttr ".tk[138]" -type "float3" 0.24900152 0 0.37350228 ;
	setAttr ".tk[140]" -type "float3" 0 -0.56203532 0.42943874 ;
	setAttr ".tk[141]" -type "float3" 0.36270002 0 0.36270002 ;
	setAttr ".tk[143]" -type "float3" 0 1.7763568e-15 -1.7636092 ;
	setAttr ".tk[145]" -type "float3" 0.46761796 -0.6836369 0.27838403 ;
	setAttr ".tk[146]" -type "float3" 0.22860774 0.24034056 -1.6317728 ;
	setAttr ".tk[147]" -type "float3" 0.58877444 0 0.65804213 ;
	setAttr ".tk[151]" -type "float3" 0 2.3841858e-07 -5.9604645e-08 ;
	setAttr ".tk[152]" -type "float3" 0.79710329 0 0.31884131 ;
	setAttr ".tk[153]" -type "float3" 0.40410301 0 -0.10719492 ;
	setAttr ".tk[156]" -type "float3" 0.88868731 0 0.55414611 ;
	setAttr ".tk[159]" -type "float3" 0.75602275 1.2724673 0.1364677 ;
	setAttr ".tk[160]" -type "float3" 0.75602269 0 0.40501219 ;
	setAttr ".tk[168]" -type "float3" -1.1743644 1.1263256 -0.3121143 ;
	setAttr ".tk[169]" -type "float3" -1.1743644 0 -0.13550358 ;
	setAttr ".tk[170]" -type "float3" 0 -1.9073486e-06 0 ;
	setAttr ".tk[171]" -type "float3" 0 -2.3841858e-07 5.9604645e-08 ;
	setAttr ".tk[172]" -type "float3" 0.54201424 0 0.90335709 ;
	setAttr ".tk[174]" -type "float3" 0 1.1989561 -0.23156424 ;
	setAttr ".tk[178]" -type "float3" 0.24900152 1.7486546 -0.15062593 ;
	setAttr ".tk[179]" -type "float3" 0.24900152 0 0.37350228 ;
	setAttr ".tk[181]" -type "float3" 0 -0.66071212 0.24112567 ;
	setAttr ".tk[182]" -type "float3" 0.36270002 0 0.36270002 ;
	setAttr ".tk[184]" -type "float3" 0 1.7763568e-15 -1.7636092 ;
	setAttr ".tk[186]" -type "float3" 0 -0.80366337 0.32597584 ;
	setAttr ".tk[187]" -type "float3" 0 0.28253722 -0.069452703 ;
	setAttr ".tk[188]" -type "float3" 0.58877444 0 0.65804213 ;
	setAttr ".tk[190]" -type "float3" -0.22318891 0 0.51014608 ;
	setAttr ".tk[191]" -type "float3" -0.22318891 0 0.51014608 ;
	setAttr ".tk[192]" -type "float3" 0.79710329 1.1920929e-07 0.31884131 ;
	setAttr ".tk[193]" -type "float3" 1.5837005 0 0.35817116 ;
	setAttr ".tk[194]" -type "float3" 1.5724742 0 0.193206 ;
	setAttr ".tk[195]" -type "float3" 0.79710329 0 0.31884131 ;
	setAttr ".tk[197]" -type "float3" 0.47374341 0 0.29986823 ;
	setAttr ".tk[200]" -type "float3" 0 1.495875 -0.21268043 ;
	setAttr ".tk[201]" -type "float3" -2.9802322e-08 0 0 ;
	setAttr ".tk[208]" -type "float3" -1.1743644 0 -0.13550358 ;
	setAttr ".tk[209]" -type "float3" -1.1743644 1.1842887 -0.19902506 ;
	setAttr ".tk[211]" -type "float3" 0 -1.9073486e-06 0 ;
	setAttr ".tk[212]" -type "float3" 0.54201424 2.3841858e-07 0.90335739 ;
	setAttr ".tk[213]" -type "float3" 0.54201424 0 0.90335709 ;
	setAttr ".tk[214]" -type "float3" 0.54201424 0 0.90335709 ;
	setAttr ".tk[215]" -type "float3" 0 1.2606571 0.043898925 ;
	setAttr ".tk[218]" -type "float3" -0.24900152 0 -0.3423771 ;
	setAttr ".tk[219]" -type "float3" -0.24900152 1.8386443 -0.52479178 ;
	setAttr ".tk[222]" -type "float3" 0.63472503 -0.69471401 0.11517981 ;
	setAttr ".tk[223]" -type "float3" 0.63472503 0 0.090675004 ;
	setAttr ".tk[225]" -type "float3" 0 1.7763568e-15 -1.7636092 ;
	setAttr ".tk[227]" -type "float3" -0.13853517 -0.84502172 -0.48949417 ;
	setAttr ".tk[228]" -type "float3" -0.13853517 0.29707712 -0.62674558 ;
	setAttr ".tk[229]" -type "float3" 0.58877444 0 0.65804213 ;
	setAttr ".tk[232]" -type "float3" -0.22318891 0 0.51014608 ;
	setAttr ".tk[233]" -type "float3" -0.22318891 -2.3841858e-07 0.51014596 ;
	setAttr ".tk[235]" -type "float3" 1.8548318 0 0.47556347 ;
	setAttr ".tk[236]" -type "float3" 0.78659719 0 0.03932986 ;
	setAttr ".tk[238]" -type "float3" 0.013774889 0 0.017999135 ;
	setAttr ".tk[241]" -type "float3" 0 1.5728562 -0.062486134 ;
	setAttr ".tk[243]" -type "float3" 0.035719663 0 0.75011277 ;
	setAttr ".tk[244]" -type "float3" 0.035719663 0 0.75011277 ;
	setAttr ".tk[247]" -type "float3" -1.2195319 0 0.36134279 ;
	setAttr ".tk[248]" -type "float3" -1.2195319 0 0.36134279 ;
	setAttr ".tk[249]" -type "float3" -1.1743644 0 -0.13550358 ;
	setAttr ".tk[250]" -type "float3" -1.4002037 1.1263256 0.48446184 ;
	setAttr ".tk[252]" -type "float3" 0 -1.9073486e-06 0 ;
	setAttr ".tk[253]" -type "float3" 0 -2.3841858e-07 8.9406967e-08 ;
	setAttr ".tk[254]" -type "float3" 0.54201424 0 0.90335709 ;
	setAttr ".tk[255]" -type "float3" 0.54201424 0 0.90335709 ;
	setAttr ".tk[256]" -type "float3" 0 1.1989563 0.31936258 ;
	setAttr ".tk[259]" -type "float3" 0.3423771 0 0.59137863 ;
	setAttr ".tk[260]" -type "float3" 0.3423771 1.7486548 1.1298144 ;
	setAttr ".tk[263]" -type "float3" 0.63472503 -0.66071224 -0.093566842 ;
	setAttr ".tk[264]" -type "float3" 0.63472503 0 0.090675004 ;
	setAttr ".tk[266]" -type "float3" 0 1.7763568e-15 -1.7636092 ;
	setAttr ".tk[268]" -type "float3" -0.13853517 -0.80366343 -0.74740523 ;
	setAttr ".tk[269]" -type "float3" -0.13853517 0.28253728 -0.53748035 ;
	setAttr ".tk[270]" -type "float3" 0.58877444 0 0.65804213 ;
	setAttr ".tk[271]" -type "float3" -0.063768253 0 0.60579842 ;
	setAttr ".tk[272]" -type "float3" 0.7510702 0 0.30042803 ;
	setAttr ".tk[274]" -type "float3" 0 1.1920929e-07 0 ;
	setAttr ".tk[275]" -type "float3" 0.76521909 0 0.031884126 ;
	setAttr ".tk[276]" -type "float3" 0.29767987 0 0.34189579 ;
	setAttr ".tk[279]" -type "float3" -0.4461942 0 -0.26387024 ;
	setAttr ".tk[282]" -type "float3" 0.96696377 1.495875 1.227958 ;
	setAttr ".tk[283]" -type "float3" 0.96696389 0 0.95290285 ;
	setAttr ".tk[284]" -type "float3" 0.035719663 0 0.75011277 ;
	setAttr ".tk[285]" -type "float3" 0.035719663 0 0.75011277 ;
	setAttr ".tk[288]" -type "float3" -1.2195319 0 0.36134279 ;
	setAttr ".tk[289]" -type "float3" -1.2195319 0 0.36134279 ;
	setAttr ".tk[290]" -type "float3" -0.22583924 0 0.49684632 ;
	setAttr ".tk[291]" -type "float3" -0.22583924 0.95810992 0.74204385 ;
	setAttr ".tk[292]" -type "float3" -0.54201418 0 0.99369264 ;
	setAttr ".tk[293]" -type "float3" 0 -1.9073486e-06 0 ;
	setAttr ".tk[294]" -type "float3" 0 -2.3841858e-07 -1.1920929e-07 ;
	setAttr ".tk[295]" -type "float3" 0 0 0.63234991 ;
	setAttr ".tk[296]" -type "float3" 0 0 0.63234991 ;
	setAttr ".tk[297]" -type "float3" 0 1.0198932 0.56786132 ;
	setAttr ".tk[298]" -type "float3" -0.21310475 0 0.81553692 ;
	setAttr ".tk[300]" -type "float3" -0.093375549 0 0.18675119 ;
	setAttr ".tk[301]" -type "float3" 0.3423771 1.4874947 1.5865042 ;
	setAttr ".tk[304]" -type "float3" -0.40803751 -0.56203544 0.62892962 ;
	setAttr ".tk[305]" -type "float3" -0.40803751 0 1.0881001 ;
	setAttr ".tk[307]" -type "float3" 0 1.7763568e-15 -1.7636092 ;
	setAttr ".tk[309]" -type "float3" -0.47428381 -0.6836369 0.14307091 ;
	setAttr ".tk[310]" -type "float3" 0 0.24034059 0.18960553 ;
	setAttr ".tk[311]" -type "float3" 0.58877444 0 0.65804213 ;
	setAttr ".tk[313]" -type "float3" 0.7510702 0 0.30042803 ;
	setAttr ".tk[314]" -type "float3" 0.7510702 0 0.30042803 ;
	setAttr ".tk[315]" -type "float3" 1.516289 2.3841858e-07 0.33231223 ;
	setAttr ".tk[316]" -type "float3" 0.76521909 0 0.031884126 ;
	setAttr ".tk[317]" -type "float3" 1.4412198 0 0.63364816 ;
	setAttr ".tk[319]" -type "float3" 0.74726748 0 0.35396874 ;
	setAttr ".tk[320]" -type "float3" -0.27693725 0 -0.24142167 ;
	setAttr ".tk[323]" -type "float3" 0.96696377 1.2724674 1.3634502 ;
	setAttr ".tk[324]" -type "float3" 1.2170014 0 -0.047247641 ;
	setAttr ".tk[325]" -type "float3" 0.035719663 0 0.75011277 ;
	setAttr ".tk[329]" -type "float3" -1.2195319 0 0.36134279 ;
	setAttr ".tk[330]" -type "float3" -1.2195319 0 0.36134279 ;
	setAttr ".tk[331]" -type "float3" -0.22583924 0 0.49684632 ;
	setAttr ".tk[332]" -type "float3" -0.22583924 0.69610763 0.82300693 ;
	setAttr ".tk[333]" -type "float3" -0.54201418 0 0.99369264 ;
	setAttr ".tk[334]" -type "float3" 0 -1.9073486e-06 0 ;
	setAttr ".tk[335]" -type "float3" 0 -2.3841858e-07 0.63234949 ;
	setAttr ".tk[336]" -type "float3" 0 0 0.63234991 ;
	setAttr ".tk[337]" -type "float3" -0.36134279 0 1.4453709 ;
	setAttr ".tk[338]" -type "float3" 0 0.74099582 0.76507127 ;
	setAttr ".tk[339]" -type "float3" -0.21310475 0 0.81553692 ;
	setAttr ".tk[340]" -type "float3" -0.21310475 0 0.81553692 ;
	setAttr ".tk[341]" -type "float3" -0.43575266 0 -0.40462747 ;
	setAttr ".tk[342]" -type "float3" -0.31125191 1.0807283 2.3317223 ;
	setAttr ".tk[345]" -type "float3" -0.40803751 -0.40834266 0.47948346 ;
	setAttr ".tk[346]" -type "float3" -0.40803751 0 1.0881001 ;
	setAttr ".tk[348]" -type "float3" 0 1.7763568e-15 -1.7636092 ;
	setAttr ".tk[350]" -type "float3" -0.23184735 -0.49669135 0.82574159 ;
	setAttr ".tk[351]" -type "float3" 0.24243653 0.17461763 1.25927 ;
	setAttr ".tk[352]" -type "float3" 0.58877444 0 0.65804213 ;
	setAttr ".tk[354]" -type "float3" 0.7510702 0 0.30042803 ;
	setAttr ".tk[355]" -type "float3" 0.7510702 0 0.30042803 ;
	setAttr ".tk[356]" -type "float3" 0.76521909 -1.1920929e-07 0.031884193 ;
	setAttr ".tk[357]" -type "float3" 0.76521909 0 0.031884126 ;
	setAttr ".tk[358]" -type "float3" 1.6433656 0 0.83579397 ;
	setAttr ".tk[359]" -type "float3" 0.74726748 0 0.35396874 ;
	setAttr ".tk[360]" -type "float3" 0.74726748 0 0.35396874 ;
	setAttr ".tk[361]" -type "float3" -0.60623866 0 -0.44321764 ;
	setAttr ".tk[364]" -type "float3" 0.96696377 0.92450166 1.470978 ;
	setAttr ".tk[365]" -type "float3" 1.2170012 0 -0.047247648 ;
	setAttr ".tk[370]" -type "float3" -1.2195319 0 0.36134279 ;
	setAttr ".tk[371]" -type "float3" -1.2195319 0 0.36134279 ;
	setAttr ".tk[372]" -type "float3" -0.22583924 0 0.49684632 ;
	setAttr ".tk[373]" -type "float3" -0.22583924 0.36596555 0.87498862 ;
	setAttr ".tk[374]" -type "float3" -0.31617492 0 0.49684632 ;
	setAttr ".tk[375]" -type "float3" 0 -1.9073486e-06 0 ;
	setAttr ".tk[376]" -type "float3" 0 1.1920929e-07 0.63234985 ;
	setAttr ".tk[377]" -type "float3" 0 0 0.63234991 ;
	setAttr ".tk[378]" -type "float3" -0.36134279 0 0.81302136 ;
	setAttr ".tk[379]" -type "float3" 0 0.38956469 0.89168811 ;
	setAttr ".tk[380]" -type "float3" -0.21310475 0 0.81553692 ;
	setAttr ".tk[382]" -type "float3" -0.74700457 0 0.49800301 ;
	setAttr ".tk[383]" -type "float3" -0.31125191 0.56817263 2.5644181 ;
	setAttr ".tk[386]" -type "float3" -0.40803751 -0.21467851 0.38353294 ;
	setAttr ".tk[387]" -type "float3" -0.40803751 0 1.0881001 ;
	setAttr ".tk[389]" -type "float3" 0 1.7763568e-15 -1.7636092 ;
	setAttr ".tk[391]" -type "float3" -0.23184735 -0.26112619 0.70719248 ;
	setAttr ".tk[392]" -type "float3" 0.24243653 0.091801956 1.3003006 ;
	setAttr ".tk[393]" -type "float3" 0.58877444 0 0.65804213 ;
	setAttr ".tk[396]" -type "float3" 0.7510702 0 0.30042803 ;
	setAttr ".tk[398]" -type "float3" 0.76521909 0 0.031884126 ;
	setAttr ".tk[399]" -type "float3" 1.773151 0 0.96557939 ;
	setAttr ".tk[401]" -type "float3" 0.74726748 0 0.35396874 ;
	setAttr ".tk[402]" -type "float3" -0.81766313 0 -0.57277906 ;
	setAttr ".tk[405]" -type "float3" 0.96696377 0.48603946 1.5400151 ;
	setAttr ".tk[406]" -type "float3" 1.2170012 0 -0.047247648 ;
	setAttr ".tk[408]" -type "float3" 0.60723424 0 0.85727167 ;
	setAttr ".tk[411]" -type "float3" -1.2195319 -8.0234217e-17 0.36134279 ;
	setAttr ".tk[412]" -type "float3" -1.2195319 -8.0234217e-17 0.36134279 ;
	setAttr ".tk[413]" -type "float3" -0.22583924 -1.1032204e-16 0.49684632 ;
	setAttr ".tk[414]" -type "float3" -0.22583924 2.1176724e-07 0.89289993 ;
	setAttr ".tk[415]" -type "float3" -0.31617492 -1.1032204e-16 0.49684632 ;
	setAttr ".tk[416]" -type "float3" 0 -1.9073486e-06 0 ;
	setAttr ".tk[417]" -type "float3" 0 -5.6843419e-14 0.63234997 ;
	setAttr ".tk[418]" -type "float3" -0.36134279 -3.2093681e-16 1.4453709 ;
	setAttr ".tk[419]" -type "float3" -0.36134279 -1.8052701e-16 0.81302136 ;
	setAttr ".tk[420]" -type "float3" 0 2.2542302e-07 0.93531674 ;
	setAttr ".tk[421]" -type "float3" -0.21310475 -1.8108557e-16 0.81553692 ;
	setAttr ".tk[423]" -type "float3" -0.31125191 -2.0042423e-16 0.90263051 ;
	setAttr ".tk[424]" -type "float3" -0.31125191 3.2877517e-07 2.6445982 ;
	setAttr ".tk[427]" -type "float3" -0.40803751 -1.242245e-07 0.3504712 ;
	setAttr ".tk[428]" -type "float3" -0.40803751 -2.4160675e-16 1.0881001 ;
	setAttr ".tk[430]" -type "float3" 0 2.1679556e-15 -1.7636092 ;
	setAttr ".tk[432]" -type "float3" -0.23184735 -1.5110162e-07 0.66634393 ;
	setAttr ".tk[433]" -type "float3" 0.24243653 5.3121511e-08 1.3144392 ;
	setAttr ".tk[434]" -type "float3" 0.58877444 -1.4611471e-16 0.65804213 ;
	setAttr ".tk[437]" -type "float3" 0.7510702 -6.6708424e-17 0.30042803 ;
	setAttr ".tk[438]" -type "float3" 0 -2.8421709e-14 0 ;
	setAttr ".tk[439]" -type "float3" 0.76521909 -7.0796982e-18 0.031884126 ;
	setAttr ".tk[440]" -type "float3" 1.8178717 -7.0796982e-18 1.0102999 ;
	setAttr ".tk[442]" -type "float3" 0.74726748 -7.8596849e-17 0.35396874 ;
	setAttr ".tk[443]" -type "float3" -0.89051467 -7.8596849e-17 -0.61742258 ;
	setAttr ".tk[446]" -type "float3" 0.96696377 2.812485e-07 1.5638026 ;
	setAttr ".tk[447]" -type "float3" 1.2170012 1.0491085e-17 -0.047247648 ;
	setAttr ".tk[449]" -type "float3" 0.60723424 -1.9035255e-16 0.85727167 ;
	setAttr ".tk[452]" -type "float3" -1.2195319 0 0.36134279 ;
	setAttr ".tk[453]" -type "float3" -1.2195319 0 0.36134279 ;
	setAttr ".tk[454]" -type "float3" -0.22583924 0 0.49684632 ;
	setAttr ".tk[455]" -type "float3" -0.22583924 -0.36596513 0.87498862 ;
	setAttr ".tk[456]" -type "float3" -0.31617492 0 0.49684632 ;
	setAttr ".tk[457]" -type "float3" 0 -1.9073486e-06 0 ;
	setAttr ".tk[458]" -type "float3" 0 -5.9604645e-08 0.63234985 ;
	setAttr ".tk[459]" -type "float3" 0 0 0.63234991 ;
	setAttr ".tk[460]" -type "float3" -0.36134279 0 0.81302136 ;
	setAttr ".tk[461]" -type "float3" 0 -0.38956422 0.89168811 ;
	setAttr ".tk[462]" -type "float3" -0.21310475 0 0.81553692 ;
	setAttr ".tk[464]" -type "float3" -0.74700457 0 0.49800301 ;
	setAttr ".tk[465]" -type "float3" -0.31125191 -0.56817198 2.5644181 ;
	setAttr ".tk[468]" -type "float3" -0.40803751 0.21467827 0.38353294 ;
	setAttr ".tk[469]" -type "float3" -0.40803751 0 1.0881001 ;
	setAttr ".tk[471]" -type "float3" 0 1.7763568e-15 -1.7636092 ;
	setAttr ".tk[473]" -type "float3" -0.23184735 0.26112589 0.70719248 ;
	setAttr ".tk[474]" -type "float3" 0.24243653 -0.091801837 1.3003006 ;
	setAttr ".tk[475]" -type "float3" 0.58877444 0 0.65804213 ;
	setAttr ".tk[478]" -type "float3" 0.7510702 0 0.30042803 ;
	setAttr ".tk[479]" -type "float3" 0 -5.9604645e-08 0 ;
	setAttr ".tk[480]" -type "float3" 0.76521909 0 0.031884126 ;
	setAttr ".tk[481]" -type "float3" 1.773151 0 0.96557939 ;
	setAttr ".tk[483]" -type "float3" 0.74726748 0 0.35396874 ;
	setAttr ".tk[484]" -type "float3" -0.81766313 0 -0.57277906 ;
	setAttr ".tk[487]" -type "float3" 0.96696377 -0.48603892 1.5400151 ;
	setAttr ".tk[488]" -type "float3" 1.2170012 0 -0.047247648 ;
	setAttr ".tk[490]" -type "float3" 0.60723424 0 0.85727167 ;
	setAttr ".tk[493]" -type "float3" -1.2195319 0 0.36134279 ;
	setAttr ".tk[494]" -type "float3" -1.2195319 0 0.36134279 ;
	setAttr ".tk[495]" -type "float3" -0.22583924 0 0.49684632 ;
	setAttr ".tk[496]" -type "float3" -0.22583924 -0.69610727 0.82300693 ;
	setAttr ".tk[497]" -type "float3" -0.54201418 0 0.99369264 ;
	setAttr ".tk[498]" -type "float3" 0 -1.9073486e-06 0 ;
	setAttr ".tk[499]" -type "float3" 0 0 0.63234949 ;
	setAttr ".tk[500]" -type "float3" 0 0 0.63234991 ;
	setAttr ".tk[501]" -type "float3" -0.36134279 0 1.4453709 ;
	setAttr ".tk[502]" -type "float3" 0 -0.74099553 0.76507127 ;
	setAttr ".tk[503]" -type "float3" -0.21310475 0 0.81553692 ;
	setAttr ".tk[504]" -type "float3" -0.21310475 0 0.81553692 ;
	setAttr ".tk[505]" -type "float3" -0.43575266 0 -0.40462747 ;
	setAttr ".tk[506]" -type "float3" -0.31125191 -1.0807277 2.3317223 ;
	setAttr ".tk[509]" -type "float3" -0.40803751 0.40834248 0.47948346 ;
	setAttr ".tk[510]" -type "float3" -0.40803751 0 1.0881001 ;
	setAttr ".tk[512]" -type "float3" 0 1.7763568e-15 -1.7636092 ;
	setAttr ".tk[514]" -type "float3" -0.23184735 0.49669117 0.82574159 ;
	setAttr ".tk[515]" -type "float3" 0.24243653 -0.17461765 1.25927 ;
	setAttr ".tk[516]" -type "float3" 0.58877444 0 0.65804213 ;
	setAttr ".tk[518]" -type "float3" 0.7510702 0 0.30042803 ;
	setAttr ".tk[519]" -type "float3" 0.7510702 0 0.30042803 ;
	setAttr ".tk[520]" -type "float3" 0.76521909 0 0.031884193 ;
	setAttr ".tk[521]" -type "float3" 0.76521909 0 0.031884126 ;
	setAttr ".tk[522]" -type "float3" 1.6433656 0 0.83579397 ;
	setAttr ".tk[523]" -type "float3" 0.74726748 0 0.35396874 ;
	setAttr ".tk[524]" -type "float3" 0.74726748 0 0.35396874 ;
	setAttr ".tk[525]" -type "float3" -0.60623866 0 -0.44321764 ;
	setAttr ".tk[528]" -type "float3" 0.96696377 -0.92450118 1.470978 ;
	setAttr ".tk[529]" -type "float3" 1.2170012 0 -0.047247648 ;
	setAttr ".tk[534]" -type "float3" -1.2195319 0 0.36134279 ;
	setAttr ".tk[535]" -type "float3" -1.2195319 0 0.36134279 ;
	setAttr ".tk[536]" -type "float3" -0.22583924 0 0.49684632 ;
	setAttr ".tk[537]" -type "float3" -0.22583924 -0.95810962 0.74204415 ;
	setAttr ".tk[538]" -type "float3" -0.54201418 0 0.99369264 ;
	setAttr ".tk[539]" -type "float3" 0 -1.9073486e-06 0 ;
	setAttr ".tk[540]" -type "float3" 0 2.3841858e-07 -5.9604645e-08 ;
	setAttr ".tk[541]" -type "float3" 0 0 0.63234991 ;
	setAttr ".tk[542]" -type "float3" 0 0 0.63234991 ;
	setAttr ".tk[543]" -type "float3" 0 -1.0198929 0.56786132 ;
	setAttr ".tk[544]" -type "float3" -0.21310475 0 0.81553692 ;
	setAttr ".tk[546]" -type "float3" -0.093375549 0 0.18675119 ;
	setAttr ".tk[547]" -type "float3" 0.3423771 -1.4874942 1.5865047 ;
	setAttr ".tk[550]" -type "float3" -0.40803751 0.56203532 0.62892962 ;
	setAttr ".tk[551]" -type "float3" -0.40803751 0 1.0881001 ;
	setAttr ".tk[553]" -type "float3" 0 1.7763568e-15 -1.7636092 ;
	setAttr ".tk[555]" -type "float3" -0.47428381 0.68363678 0.14307067 ;
	setAttr ".tk[556]" -type "float3" 0 -0.24034041 0.18960547 ;
	setAttr ".tk[557]" -type "float3" 0.58877444 0 0.65804213 ;
	setAttr ".tk[559]" -type "float3" 0.7510702 0 0.30042803 ;
	setAttr ".tk[560]" -type "float3" 0.7510702 0 0.30042803 ;
	setAttr ".tk[561]" -type "float3" 1.516289 -2.3841858e-07 0.33231199 ;
	setAttr ".tk[562]" -type "float3" 0.76521909 0 0.031884126 ;
	setAttr ".tk[563]" -type "float3" 1.4412202 0 0.63364846 ;
	setAttr ".tk[565]" -type "float3" 0.74726748 0 0.35396874 ;
	setAttr ".tk[566]" -type "float3" -0.27693763 0 -0.24142189 ;
	setAttr ".tk[569]" -type "float3" 0.96696377 -1.272467 1.3634502 ;
	setAttr ".tk[570]" -type "float3" 1.2170012 0 -0.047247648 ;
	setAttr ".tk[571]" -type "float3" 0.035719663 0 0.75011277 ;
	setAttr ".tk[575]" -type "float3" -1.2195319 0 0.36134279 ;
	setAttr ".tk[576]" -type "float3" -1.2195319 0 0.36134279 ;
	setAttr ".tk[577]" -type "float3" -1.1743644 0 -0.13550358 ;
	setAttr ".tk[578]" -type "float3" -1.4002037 -1.1263256 0.48446184 ;
	setAttr ".tk[580]" -type "float3" 0 -1.9073486e-06 0 ;
	setAttr ".tk[581]" -type "float3" 0 2.3841858e-07 8.9406967e-08 ;
	setAttr ".tk[582]" -type "float3" 0.54201424 0 0.90335709 ;
	setAttr ".tk[583]" -type "float3" 0.54201424 0 0.90335709 ;
	setAttr ".tk[584]" -type "float3" 0 -1.1989561 0.31936258 ;
	setAttr ".tk[587]" -type "float3" 0.3423771 0 0.59137863 ;
	setAttr ".tk[588]" -type "float3" 0.3423771 -1.7486546 1.1298144 ;
	setAttr ".tk[591]" -type "float3" 0.63472503 0.66071212 -0.093566842 ;
	setAttr ".tk[592]" -type "float3" 0.63472503 0 0.090675004 ;
	setAttr ".tk[594]" -type "float3" 0 1.7763568e-15 -1.7636092 ;
	setAttr ".tk[596]" -type "float3" -0.13853517 0.80366337 -0.74740523 ;
	setAttr ".tk[597]" -type "float3" -0.13853517 -0.28253722 -0.53748035 ;
	setAttr ".tk[598]" -type "float3" 0.58877444 0 0.65804213 ;
	setAttr ".tk[599]" -type "float3" -0.063768253 0 0.60579842 ;
	setAttr ".tk[600]" -type "float3" 0.7510702 0 0.30042803 ;
	setAttr ".tk[602]" -type "float3" 0 -1.1920929e-07 0 ;
	setAttr ".tk[603]" -type "float3" 0.76521909 0 0.031884126 ;
	setAttr ".tk[604]" -type "float3" 0.29767987 0 0.34189579 ;
	setAttr ".tk[607]" -type "float3" -0.4461942 0 -0.26387024 ;
	setAttr ".tk[610]" -type "float3" 0.96696377 -1.495875 1.227958 ;
	setAttr ".tk[611]" -type "float3" 0.96696389 0 0.95290285 ;
	setAttr ".tk[612]" -type "float3" 0.035719663 0 0.75011277 ;
	setAttr ".tk[613]" -type "float3" 0.035719663 0 0.75011277 ;
	setAttr ".tk[618]" -type "float3" -1.1743644 0 -0.13550358 ;
	setAttr ".tk[619]" -type "float3" -1.1743644 -1.1842887 -0.19902506 ;
	setAttr ".tk[621]" -type "float3" 0 -1.9073486e-06 0 ;
	setAttr ".tk[622]" -type "float3" 0.54201424 -2.3841858e-07 0.90335739 ;
	setAttr ".tk[623]" -type "float3" 0.54201424 0 0.90335709 ;
	setAttr ".tk[624]" -type "float3" 0.54201424 0 0.90335709 ;
	setAttr ".tk[625]" -type "float3" 0 -1.2606571 0.043898925 ;
	setAttr ".tk[628]" -type "float3" -0.24900152 0 -0.3423771 ;
	setAttr ".tk[629]" -type "float3" -0.24900152 -1.8386444 -0.52479178 ;
	setAttr ".tk[632]" -type "float3" 0.63472503 0.69471401 0.11517981 ;
	setAttr ".tk[633]" -type "float3" 0.63472503 0 0.090675004 ;
	setAttr ".tk[635]" -type "float3" 0 1.7763568e-15 -1.7636092 ;
	setAttr ".tk[637]" -type "float3" -0.13853517 0.84502172 -0.48949417 ;
	setAttr ".tk[638]" -type "float3" -0.13853517 -0.29707712 -0.62674558 ;
	setAttr ".tk[639]" -type "float3" 0.58877444 0 0.65804213 ;
	setAttr ".tk[642]" -type "float3" -0.22318891 0 0.51014608 ;
	setAttr ".tk[643]" -type "float3" -0.22318891 2.3841858e-07 0.51014596 ;
	setAttr ".tk[645]" -type "float3" 1.8548318 0 0.47556347 ;
	setAttr ".tk[646]" -type "float3" 0.78659719 0 0.03932986 ;
	setAttr ".tk[648]" -type "float3" 0.013774889 0 0.017999135 ;
	setAttr ".tk[651]" -type "float3" 0 -1.5728559 -0.062486134 ;
	setAttr ".tk[653]" -type "float3" 0.035719663 0 0.75011277 ;
	setAttr ".tk[654]" -type "float3" 0.035719663 0 0.75011277 ;
	setAttr ".tk[660]" -type "float3" -1.1743644 -1.1263256 -0.31211433 ;
	setAttr ".tk[661]" -type "float3" -1.1743644 0 -0.13550358 ;
	setAttr ".tk[662]" -type "float3" 0 -1.9073486e-06 0 ;
	setAttr ".tk[663]" -type "float3" 0 2.3841858e-07 0 ;
	setAttr ".tk[664]" -type "float3" 0.54201424 0 0.90335709 ;
	setAttr ".tk[666]" -type "float3" 0 -1.1989563 -0.23156452 ;
	setAttr ".tk[670]" -type "float3" 0.24900152 -1.7486548 -0.15062642 ;
	setAttr ".tk[671]" -type "float3" 0.24900152 0 0.37350228 ;
	setAttr ".tk[673]" -type "float3" 0 0.66071224 0.24112582 ;
	setAttr ".tk[674]" -type "float3" 0.36270002 0 0.36270002 ;
	setAttr ".tk[676]" -type "float3" 0 1.7763568e-15 -1.7636092 ;
	setAttr ".tk[678]" -type "float3" 0 0.80366343 0.32597598 ;
	setAttr ".tk[679]" -type "float3" 0 -0.28253716 -0.069452807 ;
	setAttr ".tk[680]" -type "float3" 0.58877444 0 0.65804213 ;
	setAttr ".tk[682]" -type "float3" -0.22318891 0 0.51014608 ;
	setAttr ".tk[683]" -type "float3" -0.22318891 0 0.51014608 ;
	setAttr ".tk[684]" -type "float3" 0.79710329 -1.1920929e-07 0.31884131 ;
	setAttr ".tk[685]" -type "float3" 1.5837005 0 0.35817116 ;
	setAttr ".tk[686]" -type "float3" 1.5724742 0 0.19320583 ;
	setAttr ".tk[687]" -type "float3" 0.79710329 0 0.31884131 ;
	setAttr ".tk[689]" -type "float3" 0.47374383 0 0.29986846 ;
	setAttr ".tk[692]" -type "float3" 0 -1.495875 -0.2126805 ;
	setAttr ".tk[693]" -type "float3" -2.9802322e-08 0 0 ;
	setAttr ".tk[701]" -type "float3" 0.9936927 -0.95810992 -0.15486209 ;
	setAttr ".tk[702]" -type "float3" 0.9936927 0 0.090335697 ;
	setAttr ".tk[703]" -type "float3" 0 -1.9073486e-06 0 ;
	setAttr ".tk[704]" -type "float3" 0 2.3841858e-07 -5.9604645e-08 ;
	setAttr ".tk[707]" -type "float3" 0.39000958 -1.0198932 -0.60905468 ;
	setAttr ".tk[708]" -type "float3" 0.39000958 0 -0.11143132 ;
	setAttr ".tk[709]" -type "float3" 0.39000958 0 -0.11143132 ;
	setAttr ".tk[711]" -type "float3" 0 -1.4874947 -1.066661 ;
	setAttr ".tk[712]" -type "float3" 0.24900152 0 0.37350228 ;
	setAttr ".tk[714]" -type "float3" 0 0.56203544 0.42943889 ;
	setAttr ".tk[715]" -type "float3" 0.36270002 0 0.36270002 ;
	setAttr ".tk[717]" -type "float3" 0 1.7763568e-15 -1.7636092 ;
	setAttr ".tk[719]" -type "float3" 0.46761796 0.6836369 0.27838445 ;
	setAttr ".tk[720]" -type "float3" 0.22860774 -0.24034059 -1.6317728 ;
	setAttr ".tk[721]" -type "float3" 0.58877444 0 0.65804213 ;
	setAttr ".tk[725]" -type "float3" 0 -2.3841858e-07 0 ;
	setAttr ".tk[726]" -type "float3" 0.79710329 0 0.31884131 ;
	setAttr ".tk[727]" -type "float3" 0.40410262 0 -0.10719536 ;
	setAttr ".tk[730]" -type "float3" 0.88868815 0 0.55414653 ;
	setAttr ".tk[733]" -type "float3" 0.75602275 -1.2724674 0.13646746 ;
	setAttr ".tk[734]" -type "float3" 0.75602281 0 0.40501219 ;
	setAttr ".tk[740]" -type "float3" 1.0840284 0 0.27100706 ;
	setAttr ".tk[742]" -type "float3" 0.9936927 -0.69610745 -0.23582511 ;
	setAttr ".tk[743]" -type "float3" 0.9936927 0 0.090335697 ;
	setAttr ".tk[744]" -type "float3" 0 -1.9073486e-06 0 ;
	setAttr ".tk[745]" -type "float3" 0 1.1920929e-07 1.1920929e-07 ;
	setAttr ".tk[746]" -type "float3" 1.4002033 0 -0.27100709 ;
	setAttr ".tk[747]" -type "float3" 0.39000958 0 -0.11143132 ;
	setAttr ".tk[748]" -type "float3" 0.39000958 -0.74099571 -0.80626458 ;
	setAttr ".tk[749]" -type "float3" 0.89145058 0 -0.55715662 ;
	setAttr ".tk[750]" -type "float3" 0.89145058 0 -0.55715662 ;
	setAttr ".tk[751]" -type "float3" 0.39000958 0 -0.11143132 ;
	setAttr ".tk[752]" -type "float3" 0.062250379 -1.0807282 -0.70179731 ;
	setAttr ".tk[753]" -type "float3" 0.062250379 0 0.59137863 ;
	setAttr ".tk[755]" -type "float3" -0.43575266 0.4083426 0.26623979 ;
	setAttr ".tk[756]" -type "float3" -0.43575266 0 -0.3423771 ;
	setAttr ".tk[758]" -type "float3" 0.26438141 1.7763568e-15 -0.91758919 ;
	setAttr ".tk[760]" -type "float3" 0.46761796 0.49669129 0.46302837 ;
	setAttr ".tk[761]" -type "float3" 0.33436033 -0.17461753 -2.3263376 ;
	setAttr ".tk[762]" -type "float3" 0.58877444 0 0.65804213 ;
	setAttr ".tk[763]" -type "float3" 0.58163905 0 -0.89889646 ;
	setAttr ".tk[764]" -type "float3" 0.22318891 0 0.66956675 ;
	setAttr ".tk[765]" -type "float3" 0.22318891 0 0.66956675 ;
	setAttr ".tk[766]" -type "float3" 0.22318891 -1.1920929e-07 0.66956675 ;
	setAttr ".tk[768]" -type "float3" -1.4645841 0 -1.2351971 ;
	setAttr ".tk[769]" -type "float3" -0.21467242 0 0.15625337 ;
	setAttr ".tk[771]" -type "float3" 1.2179894 0 0.75594276 ;
	setAttr ".tk[772]" -type "float3" -0.62101859 0 -0.18900569 ;
	setAttr ".tk[774]" -type "float3" 0.75602275 -0.92450154 0.028940111 ;
	setAttr ".tk[775]" -type "float3" 0.75602275 0 0.40501219 ;
	setAttr ".tk[776]" -type "float3" -0.85727167 0 0.071439326 ;
	setAttr ".tk[777]" -type "float3" -0.85727167 0 0.071439326 ;
	setAttr ".tk[781]" -type "float3" 1.0840284 0 0.27100706 ;
	setAttr ".tk[782]" -type "float3" 1.0840284 0 0.27100706 ;
	setAttr ".tk[783]" -type "float3" 0.9936927 -0.36596525 -0.28780654 ;
	setAttr ".tk[784]" -type "float3" 0.9936927 0 0.090335697 ;
	setAttr ".tk[785]" -type "float3" 0.9936927 -1.9073486e-06 0.090335697 ;
	setAttr ".tk[786]" -type "float3" 0 1.1920929e-07 0 ;
	setAttr ".tk[787]" -type "float3" 1.4002033 0 -0.27100709 ;
	setAttr ".tk[789]" -type "float3" 0.39000958 -0.38956442 -0.9328813 ;
	setAttr ".tk[790]" -type "float3" 0.89145058 0 -0.55715662 ;
	setAttr ".tk[791]" -type "float3" 0.89145058 0 -0.55715662 ;
	setAttr ".tk[792]" -type "float3" 0.50144088 0 -0.44572523 ;
	setAttr ".tk[793]" -type "float3" 0.062250379 -0.56817228 -0.93449259 ;
	setAttr ".tk[794]" -type "float3" 0.062250379 0 0.59137863 ;
	setAttr ".tk[796]" -type "float3" -0.43575266 0.21467835 0.36219004 ;
	setAttr ".tk[797]" -type "float3" -0.43575266 0 -0.3423771 ;
	setAttr ".tk[799]" -type "float3" 0.26438141 1.7763568e-15 -0.91758919 ;
	setAttr ".tk[801]" -type "float3" 0.46761796 0.26112601 0.58157706 ;
	setAttr ".tk[802]" -type "float3" 0.33436033 -0.091801919 -2.3673685 ;
	setAttr ".tk[803]" -type "float3" 1.170413 0 -0.24085468 ;
	setAttr ".tk[804]" -type "float3" 0.58163905 0 -0.89889646 ;
	setAttr ".tk[805]" -type "float3" 0.32894149 0 0.061489485 ;
	setAttr ".tk[806]" -type "float3" 0.22318891 0 0.66956675 ;
	setAttr ".tk[807]" -type "float3" 0.22318891 5.9604645e-08 0.66956675 ;
	setAttr ".tk[808]" -type "float3" -0.3172577 0 -0.29081956 ;
	setAttr ".tk[809]" -type "float3" -1.962872 0 -1.7027769 ;
	setAttr ".tk[810]" -type "float3" -0.21467242 0 0.15625337 ;
	setAttr ".tk[812]" -type "float3" 0.9439128 0 0.73774266 ;
	setAttr ".tk[813]" -type "float3" -0.96471411 0 -0.71776843 ;
	setAttr ".tk[815]" -type "float3" -0.71382976 -0.48603913 -0.90436965 ;
	setAttr ".tk[817]" -type "float3" -0.85727167 0 0.071439326 ;
	setAttr ".tk[818]" -type "float3" -0.85727167 0 0.071439326 ;
	setAttr ".tk[820]" -type "float3" 0.26438141 1.9801024e-15 -0.91758919 ;
	setAttr ".tk[821]" -type "float3" 0.26438141 1.7763568e-15 -0.91758919 ;
	setAttr ".tk[822]" -type "float3" 0.26438141 1.7763568e-15 -0.91758919 ;
	setAttr ".tk[823]" -type "float3" 0.26438141 1.7763568e-15 -0.91758919 ;
	setAttr ".tk[824]" -type "float3" 0 1.7763568e-15 -1.7636092 ;
	setAttr ".tk[825]" -type "float3" 0 1.7763568e-15 -1.7636092 ;
	setAttr ".tk[826]" -type "float3" 0 1.7763568e-15 -1.7636092 ;
	setAttr ".tk[827]" -type "float3" 0 1.7763568e-15 -1.7636092 ;
	setAttr ".tk[828]" -type "float3" 0 1.7763568e-15 -1.7636092 ;
	setAttr ".tk[829]" -type "float3" 0 1.7763568e-15 -1.7636092 ;
	setAttr ".tk[830]" -type "float3" 0 1.7763568e-15 -1.7636092 ;
	setAttr ".tk[831]" -type "float3" 0 2.1679556e-15 -1.7636092 ;
	setAttr ".tk[832]" -type "float3" 0 1.7763568e-15 -1.7636092 ;
	setAttr ".tk[833]" -type "float3" 0 1.7763568e-15 -1.7636092 ;
	setAttr ".tk[834]" -type "float3" 0 1.7763568e-15 -1.7636092 ;
	setAttr ".tk[835]" -type "float3" 0 1.7763568e-15 -1.7636092 ;
	setAttr ".tk[836]" -type "float3" 0 1.7763568e-15 -1.7636092 ;
	setAttr ".tk[837]" -type "float3" 0 1.7763568e-15 -1.7636092 ;
	setAttr ".tk[838]" -type "float3" 0 1.7763568e-15 -1.7636092 ;
	setAttr ".tk[839]" -type "float3" 0.26438141 1.7763568e-15 -0.91758919 ;
select -ne :time1;
	setAttr ".o" 0;
select -ne :hardwareRenderingGlobals;
	setAttr ".otfna" -type "stringArray" 22 "NURBS Curves" "NURBS Surfaces" "Polygons" "Subdiv Surface" "Particles" "Particle Instance" "Fluids" "Strokes" "Image Planes" "UI" "Lights" "Cameras" "Locators" "Joints" "IK Handles" "Deformers" "Motion Trails" "Components" "Hair Systems" "Follicles" "Misc. UI" "Ornaments"  ;
	setAttr ".otfva" -type "Int32Array" 22 0 1 1 1 1 1
		 1 1 1 0 0 0 0 0 0 0 0 0
		 0 0 0 0 ;
	setAttr ".fprt" yes;
select -ne :renderPartition;
	setAttr -s 2 ".st";
select -ne :renderGlobalsList1;
select -ne :defaultShaderList1;
	setAttr -s 5 ".s";
select -ne :postProcessList1;
	setAttr -s 2 ".p";
select -ne :defaultRenderingList1;
select -ne :initialShadingGroup;
	setAttr ".ro" yes;
select -ne :initialParticleSE;
	setAttr ".ro" yes;
select -ne :defaultRenderGlobals;
	addAttr -ci true -h true -sn "dss" -ln "defaultSurfaceShader" -dt "string";
	setAttr ".ren" -type "string" "arnold";
	setAttr ".dss" -type "string" "lambert1";
select -ne :defaultResolution;
	setAttr ".pa" 1;
select -ne :defaultColorMgtGlobals;
	setAttr ".cfe" yes;
	setAttr ".cfp" -type "string" "<MAYA_RESOURCES>/OCIO-configs/Maya2022-default/config.ocio";
	setAttr ".vtn" -type "string" "ACES 1.0 SDR-video (sRGB)";
	setAttr ".vn" -type "string" "ACES 1.0 SDR-video";
	setAttr ".dn" -type "string" "sRGB";
	setAttr ".wsn" -type "string" "ACEScg";
	setAttr ".otn" -type "string" "ACES 1.0 SDR-video (sRGB)";
	setAttr ".potn" -type "string" "ACES 1.0 SDR-video (sRGB)";
select -ne :hardwareRenderGlobals;
	setAttr ".ctrs" 256;
	setAttr ".btrs" 512;
connectAttr "polyExtrudeFace1.out" "pTorusShape1.i";
relationship "link" ":lightLinker1" ":initialShadingGroup.message" ":defaultLightSet.message";
relationship "link" ":lightLinker1" ":initialParticleSE.message" ":defaultLightSet.message";
relationship "shadowLink" ":lightLinker1" ":initialShadingGroup.message" ":defaultLightSet.message";
relationship "shadowLink" ":lightLinker1" ":initialParticleSE.message" ":defaultLightSet.message";
connectAttr "layerManager.dli[0]" "defaultLayer.id";
connectAttr "renderLayerManager.rlmi[0]" "defaultRenderLayer.rlid";
connectAttr ":defaultArnoldDisplayDriver.msg" ":defaultArnoldRenderOptions.drivers"
		 -na;
connectAttr ":defaultArnoldFilter.msg" ":defaultArnoldRenderOptions.filt";
connectAttr ":defaultArnoldDriver.msg" ":defaultArnoldRenderOptions.drvr";
connectAttr "polyTorus1.out" "deleteComponent1.ig";
connectAttr "deleteComponent1.og" "polySplitEdge1.ip";
connectAttr "polyTweak1.out" "polyExtrudeFace1.ip";
connectAttr "pTorusShape1.wm" "polyExtrudeFace1.mp";
connectAttr "polySplitEdge1.out" "polyTweak1.ip";
connectAttr "defaultRenderLayer.msg" ":defaultRenderingList1.r" -na;
connectAttr "pTorusShape1.iog" ":initialShadingGroup.dsm" -na;
// End of halfcirc_tube_8r.ma
